%!PS-Adobe-3.0
%%Title: AxialGradiometer.fig
%%Creator: fig2dev Version 3.2.6a
%%CreationDate: 2019-08-20 19:16:00
%%Orientation: Landscape
%%Pages: 1
%%BoundingBox: 0 0 595 842
%%DocumentPaperSizes: a4
%Magnification: 1.0000
%%EndComments
%%BeginSetup
[{
%%BeginFeature: *PageRegion A4
<</PageSize [595 842]>> setpagedevice
%%EndFeature
} stopped cleartomark
%%EndSetup
%%BeginProlog
/$F2psDict 200 dict def
$F2psDict begin
$F2psDict /mtrx matrix put
/col-1 {0 setgray} bind def
/col0 {0.000 0.000 0.000 srgb} bind def
/col7 {1.000 1.000 1.000 srgb} bind def

end

/cp {closepath} bind def
/ef {eofill} bind def
/gr {grestore} bind def
/gs {gsave} bind def
/sa {save} bind def
/rs {restore} bind def
/l {lineto} bind def
/m {moveto} bind def
/rm {rmoveto} bind def
/n {newpath} bind def
/s {stroke} bind def
/sh {show} bind def
/slc {setlinecap} bind def
/slj {setlinejoin} bind def
/slw {setlinewidth} bind def
/srgb {setrgbcolor} bind def
/rot {rotate} bind def
/sc {scale} bind def
/sd {setdash} bind def
/ff {findfont} bind def
/sf {setfont} bind def
/scf {scalefont} bind def
/sw {stringwidth} bind def
/tr {translate} bind def
/tnt {dup dup currentrgbcolor
  4 -2 roll dup 1 exch sub 3 -1 roll mul add
  4 -2 roll dup 1 exch sub 3 -1 roll mul add
  4 -2 roll dup 1 exch sub 3 -1 roll mul add srgb}
  bind def
/shd {dup dup currentrgbcolor 4 -2 roll mul 4 -2 roll mul
  4 -2 roll mul srgb} bind def
/$F2psBegin {$F2psDict begin /$F2psEnteredState save def} def
/$F2psEnd {$F2psEnteredState restore end} def

/pageheader {
save
newpath 0 842 moveto 0 0 lineto 595 0 lineto 595 842 lineto closepath clip newpath
8.4 34.0 translate
$F2psBegin
10 setmiterlimit
0 slj 0 slc
 0.06299 0.06299 sc
} bind def
/pagefooter {
$F2psEnd
restore
} bind def
%%EndProlog
%%Page: 1 1
%%BeginPageSetup
pageheader
 90 rotate
1 -1 scale
%%EndPageSetup
%
% Fig objects follow
%
% 
% here starts figure with depth 50
% Polyline
0 slj
0 slc
15.000 slw
gs  clippath
4130 3590 m 4151 3590 l 4200 3857 l 4140 3617 l 4080 3857 l cp
4151 5681 m 4130 5681 l 4080 5413 l 4140 5653 l 4200 5413 l cp
eoclip
n 4140 5670 m
 4140 3600 l gs col0 s gr gr

% arrowhead
7.500 slw
n 4200 5413 m 4140 5653 l 4080 5413 l  col0 s
% arrowhead
n 4080 3857 m 4140 3617 l 4200 3857 l  col0 s
% Polyline
15.000 slw
gs  clippath
8471 2420 m 8471 2441 l 8203 2490 l 8443 2430 l 8203 2370 l cp
4850 2441 m 4850 2420 l 5117 2370 l 4877 2430 l 5117 2490 l cp
eoclip
n 4860 2430 m
 8460 2430 l gs col0 s gr gr

% arrowhead
7.500 slw
n 5117 2490 m 4877 2430 l 5117 2370 l  col0 s
% arrowhead
n 8203 2370 m 8443 2430 l 8203 2490 l  col0 s
% Polyline
15.000 slw
gs  clippath
6830 6761 m 6830 6740 l 7097 6690 l 6857 6750 l 7097 6810 l cp
eoclip
n 6840 6750 m
 7200 6750 l gs col0 s gr gr

% arrowhead
7.500 slw
n 7097 6810 m 6857 6750 l 7097 6690 l  col0 s
% Polyline
15.000 slw
gs  clippath
6491 6740 m 6491 6761 l 6223 6810 l 6463 6750 l 6223 6690 l cp
eoclip
n 6480 6750 m
 6120 6750 l gs col0 s gr gr

% arrowhead
7.500 slw
n 6223 6690 m 6463 6750 l 6223 6810 l  col0 s
% Polyline
gs  clippath
7927 5663 m 7927 5677 l 7783 5700 l 7903 5670 l 7783 5640 l cp
eoclip
n 6660 5670 m
 7920 5670 l gs col0 s gr gr

% arrowhead
n 7783 5640 m 7903 5670 l 7783 5700 l  col0 s
% Polyline
gs  clippath
6653 4448 m 6667 4448 l 6690 4592 l 6660 4472 l 6630 4592 l cp
eoclip
n 6660 5670 m
 6660 4455 l gs col0 s gr gr

% arrowhead
n 6630 4592 m 6660 4472 l 6690 4592 l  col0 s
% Polyline
30.000 slw
gs  clippath
8153 6051 m 8169 6083 l 7943 6243 l 7889 6136 l cp
eoclip
n 7965 6165 m
 8145 6075 l gs col0 s gr gr

% arrowhead
7.500 slw
n 7943 6243 m 8131 6082 l 7889 6136 l 7943 6243 l  cp gs 0.00 setgray ef gr  col0 s
% Polyline
30.000 slw
gs  clippath
5648 4198 m 5657 4163 l 5933 4189 l 5904 4305 l cp
eoclip
n 6030 4275 m
 5670 4185 l gs col0 s gr gr

% arrowhead
7.500 slw
n 5933 4189 m 5686 4189 l 5904 4305 l 5933 4189 l  cp gs 0.00 setgray ef gr  col0 s
% Polyline
30.000 slw
n 6480 4320 m
 6480 6435 l gs col0 s gr 
% Polyline
n 6840 6435 m
 6840 4320 l gs col0 s gr 
% Polyline
gs  clippath
6462 5112 m 6498 5112 l 6540 5386 l 6420 5386 l cp
eoclip
n 6480 5310 m
 6480 5130 l gs col0 s gr gr

% arrowhead
7.500 slw
n 6540 5386 m 6480 5146 l 6420 5386 l 6540 5386 l  cp gs 0.00 setgray ef gr  col0 s
% Polyline
30.000 slw
gs  clippath
6858 5463 m 6822 5463 l 6780 5189 l 6900 5189 l cp
eoclip
n 6840 5445 m
 6840 5175 l gs col0 s gr gr

% arrowhead
7.500 slw
n 6780 5189 m 6840 5429 l 6900 5189 l 6780 5189 l  cp gs 0.00 setgray ef gr  col0 s
% Polyline
gs  clippath
6667 6037 m 6653 6037 l 6630 5893 l 6660 6013 l 6690 5893 l cp
eoclip
n 6660 5670 m
 6660 6030 l gs col0 s gr gr

% arrowhead
n 6690 5893 m 6660 6013 l 6630 5893 l  col0 s
% Polyline
2 slj
30.000 slw
n 6840 4320 m 6843 4320 l 6851 4319 l 6864 4317 l 6883 4315 l 6908 4313 l
 6938 4309 l 6970 4306 l 7004 4302 l 7039 4298 l 7072 4294 l
 7104 4290 l 7134 4286 l 7162 4282 l 7188 4279 l 7213 4275 l
 7237 4272 l 7260 4268 l 7282 4264 l 7305 4260 l 7326 4256 l
 7347 4252 l 7368 4248 l 7390 4243 l 7413 4239 l 7436 4234 l
 7459 4229 l 7483 4223 l 7507 4218 l 7531 4212 l 7555 4206 l
 7579 4201 l 7602 4195 l 7625 4189 l 7647 4184 l 7668 4178 l
 7688 4173 l 7708 4167 l 7727 4162 l 7744 4157 l 7761 4152 l
 7778 4148 l 7799 4141 l 7820 4135 l 7840 4128 l 7860 4122 l
 7879 4115 l 7898 4109 l 7917 4102 l 7935 4095 l 7953 4088 l
 7970 4081 l 7986 4075 l 8001 4068 l 8015 4062 l 8029 4055 l
 8042 4049 l 8055 4043 l 8070 4035 l 8085 4027 l 8100 4019 l
 8116 4010 l 8132 4001 l 8148 3992 l 8164 3982 l 8180 3973 l
 8195 3964 l 8210 3955 l 8223 3946 l 8235 3938 l 8247 3930 l
 8258 3923 l 8269 3914 l 8280 3905 l 8291 3897 l 8302 3888 l
 8312 3878 l 8322 3869 l 8331 3859 l 8340 3849 l 8348 3840 l
 8356 3830 l 8363 3820 l 8370 3810 l 8377 3799 l 8384 3788 l
 8391 3776 l 8398 3763 l 8406 3749 l 8413 3735 l 8420 3721 l
 8426 3707 l 8432 3694 l 8437 3682 l 8441 3671 l 8445 3660 l
 8449 3648 l 8452 3636 l 8454 3624 l 8456 3613 l 8457 3601 l
 8457 3590 l 8457 3579 l 8456 3568 l 8454 3558 l 8453 3548 l
 8450 3537 l 8447 3526 l 8444 3513 l 8439 3500 l 8434 3486 l
 8429 3473 l 8422 3459 l 8415 3445 l 8408 3432 l 8400 3420 l
 8393 3410 l 8385 3399 l 8376 3388 l 8367 3377 l 8356 3365 l
 8345 3354 l 8334 3342 l 8323 3331 l 8312 3320 l 8301 3311 l
 8290 3301 l 8280 3293 l 8270 3284 l 8259 3276 l 8248 3267 l
 8236 3258 l 8224 3250 l 8211 3241 l 8199 3233 l 8186 3224 l
 8174 3217 l 8161 3209 l 8149 3202 l 8138 3195 l 8127 3189 l
 8116 3183 l 8105 3177 l 8092 3170 l 8080 3164 l 8066 3157 l
 8052 3150 l 8037 3143 l 8023 3136 l 8008 3130 l 7994 3123 l
 7979 3117 l 7965 3111 l 7950 3105 l 7935 3099 l 7919 3093 l
 7903 3087 l 7886 3081 l 7868 3074 l 7849 3068 l 7830 3061 l
 7811 3055 l 7792 3048 l 7774 3043 l 7757 3037 l 7741 3032 l
 7725 3027 l 7710 3023 l 7695 3018 l 7681 3014 l 7666 3010 l
 7651 3006 l 7636 3002 l 7621 2997 l 7606 2994 l 7591 2990 l
 7576 2986 l 7562 2983 l 7548 2979 l 7534 2976 l 7521 2973 l
 7508 2970 l 7496 2967 l 7484 2965 l 7471 2962 l 7458 2959 l
 7443 2956 l 7428 2954 l 7413 2951 l 7396 2948 l 7379 2944 l
 7362 2941 l 7344 2939 l 7326 2936 l 7308 2933 l 7290 2930 l
 7272 2928 l 7253 2925 l 7235 2923 l 7217 2920 l 7197 2918 l
 7177 2916 l 7156 2913 l 7134 2911 l 7111 2908 l 7088 2906 l
 7064 2904 l 7040 2901 l 7017 2899 l 6993 2897 l 6971 2895 l
 6949 2893 l 6928 2892 l 6908 2890 l 6889 2889 l 6870 2888 l
 6852 2886 l 6834 2885 l 6816 2885 l 6798 2884 l 6780 2883 l
 6761 2883 l 6742 2882 l 6723 2882 l 6704 2882 l 6685 2882 l
 6665 2882 l 6646 2883 l 6627 2883 l 6608 2884 l 6589 2885 l
 6571 2885 l 6552 2886 l 6533 2888 l 6515 2889 l 6496 2890 l
 6477 2891 l 6457 2893 l 6436 2894 l 6414 2896 l 6391 2898 l
 6367 2900 l 6343 2902 l 6318 2905 l 6293 2907 l 6269 2910 l
 6244 2912 l 6219 2915 l 6195 2918 l 6172 2921 l 6149 2924 l
 6126 2926 l 6104 2929 l 6083 2933 l 6061 2936 l 6039 2939 l
 6017 2942 l 5995 2946 l 5972 2950 l 5949 2954 l 5926 2958 l
 5902 2962 l 5879 2967 l 5855 2971 l 5832 2976 l 5809 2980 l
 5787 2985 l 5766 2989 l 5746 2994 l 5726 2998 l 5707 3002 l
 5689 3007 l 5672 3011 l 5655 3015 l 5635 3020 l 5615 3025 l
 5595 3031 l 5574 3037 l 5554 3042 l 5534 3048 l 5514 3055 l
 5494 3061 l 5475 3068 l 5456 3074 l 5437 3081 l 5420 3087 l
 5403 3093 l 5386 3100 l 5371 3106 l 5355 3113 l 5339 3119 l
 5324 3126 l 5308 3133 l 5291 3140 l 5275 3148 l 5258 3156 l
 5241 3164 l 5224 3173 l 5208 3181 l 5192 3189 l 5177 3197 l
 5163 3205 l 5149 3212 l 5137 3219 l 5126 3226 l 5115 3233 l
 5099 3243 l 5084 3253 l 5070 3263 l 5057 3273 l 5045 3283 l
 5034 3292 l 5025 3301 l 5016 3309 l 5009 3316 l 5003 3323 l
 4995 3330 l 4988 3338 l 4980 3346 l 4973 3355 l 4965 3364 l
 4957 3374 l 4950 3385 l 4943 3398 l 4937 3407 l 4932 3417 l
 4925 3428 l 4919 3440 l 4913 3453 l 4906 3466 l 4900 3480 l
 4894 3493 l 4888 3506 l 4883 3518 l 4879 3529 l 4875 3540 l
 4871 3552 l 4868 3564 l 4866 3576 l 4864 3587 l 4863 3599 l
 4863 3610 l 4863 3621 l 4864 3632 l 4866 3642 l 4868 3653 l
 4870 3663 l 4873 3674 l 4876 3687 l 4881 3700 l 4886 3714 l
 4891 3727 l 4898 3741 l 4905 3755 l 4912 3768 l 4920 3780 l
 4927 3790 l 4935 3801 l 4944 3812 l 4953 3823 l 4964 3835 l
 4975 3846 l 4986 3858 l 4997 3869 l 5008 3880 l 5019 3889 l
 5030 3899 l 5040 3908 l 5050 3916 l 5061 3924 l 5072 3933 l
 5084 3942 l 5096 3950 l 5109 3959 l 5121 3967 l 5134 3976 l
 5146 3983 l 5159 3991 l 5171 3998 l 5183 4005 l 5195 4012 l
 5208 4019 l 5221 4026 l 5235 4034 l 5250 4041 l 5265 4049 l
 5280 4056 l 5295 4064 l 5309 4070 l 5322 4076 l 5335 4082 l
 5348 4088 l 5359 4093 l 5372 4097 l 5384 4102 l 5397 4107 l
 5411 4112 l 5426 4118 l 5441 4123 l 5456 4128 l 5471 4133 l
 5487 4138 l 5503 4142 l 5520 4148 l 5533 4151 l 5547 4156 l
 5562 4160 l 5578 4165 l 5595 4170 l 5613 4175 l 5631 4180 l
 5650 4185 l 5668 4190 l 5687 4195 l 5706 4200 l 5724 4205 l
 5741 4210 l 5758 4214 l 5774 4219 l 5790 4223 l 5805 4226 l
 5821 4230 l 5836 4234 l 5852 4237 l 5868 4241 l 5885 4244 l
 5902 4248 l 5919 4251 l 5936 4255 l 5953 4258 l 5970 4261 l
 5986 4264 l 6003 4267 l 6020 4270 l 6036 4272 l 6053 4275 l
 6070 4278 l 6087 4280 l 6106 4283 l 6125 4286 l 6145 4288 l
 6165 4291 l 6186 4294 l 6207 4296 l 6227 4299 l 6247 4302 l
 6266 4304 l 6285 4306 l 6301 4308 l 6317 4310 l 6332 4311 l
 6345 4313 l 6364 4314 l 6382 4316 l 6399 4317 l 6416 4318 l
 6433 4319 l 6450 4319 l 6465 4320 l 6475 4320 l 6479 4320 l

 6480 4320 l gs col0 s gr 
% Polyline
n 6837 6412 m 6840 6412 l 6848 6411 l 6861 6409 l 6880 6407 l 6905 6405 l
 6935 6401 l 6967 6398 l 7001 6394 l 7036 6390 l 7069 6386 l
 7101 6382 l 7131 6378 l 7159 6374 l 7185 6371 l 7210 6367 l
 7234 6364 l 7257 6360 l 7279 6356 l 7302 6352 l 7323 6348 l
 7344 6344 l 7365 6340 l 7387 6335 l 7410 6331 l 7433 6326 l
 7456 6321 l 7480 6315 l 7504 6310 l 7528 6304 l 7552 6298 l
 7576 6293 l 7599 6287 l 7622 6281 l 7644 6276 l 7665 6270 l
 7685 6265 l 7705 6259 l 7724 6254 l 7741 6249 l 7758 6244 l
 7775 6240 l 7796 6233 l 7817 6227 l 7837 6220 l 7857 6214 l
 7876 6207 l 7895 6201 l 7914 6194 l 7932 6187 l 7950 6180 l
 7967 6173 l 7983 6167 l 7998 6160 l 8012 6154 l 8026 6147 l
 8039 6141 l 8052 6135 l 8067 6127 l 8082 6119 l 8097 6111 l
 8113 6102 l 8129 6093 l 8145 6084 l 8161 6074 l 8177 6065 l
 8192 6056 l 8207 6047 l 8220 6038 l 8232 6030 l 8244 6022 l
 8255 6015 l 8266 6006 l 8277 5997 l 8288 5989 l 8299 5980 l
 8309 5970 l 8319 5961 l 8328 5951 l 8337 5941 l 8345 5932 l
 8353 5922 l 8360 5912 l 8367 5902 l 8374 5891 l 8381 5880 l
 8388 5868 l 8395 5855 l 8403 5841 l 8410 5827 l 8417 5813 l
 8423 5799 l 8429 5786 l 8434 5774 l 8438 5763 l 8442 5752 l
 8446 5740 l 8449 5728 l 8451 5716 l 8453 5705 l 8454 5693 l
 8454 5682 l 8454 5671 l 8453 5660 l 8451 5650 l 8450 5640 l
 8447 5629 l 8444 5618 l 8441 5605 l 8436 5592 l 8431 5578 l
 8426 5565 l 8419 5551 l 8412 5537 l 8405 5524 l 8397 5512 l
 8390 5502 l 8382 5491 l 8373 5480 l 8364 5469 l 8353 5457 l
 8342 5446 l 8331 5434 l 8320 5423 l 8309 5412 l 8298 5403 l
 8287 5393 l 8277 5385 l 8267 5376 l 8256 5368 l 8245 5359 l
 8233 5350 l 8221 5342 l 8208 5333 l 8196 5325 l 8183 5316 l
 8171 5309 l 8158 5301 l 8146 5294 l 8135 5287 l 8124 5281 l
 8113 5275 l 8102 5269 l 8089 5262 l 8077 5256 l 8063 5249 l
 8049 5242 l 8034 5235 l 8020 5228 l 8005 5222 l 7991 5215 l
 7976 5209 l 7962 5203 l 7947 5197 l 7932 5191 l 7916 5185 l
 7900 5179 l 7883 5173 l 7865 5166 l 7846 5160 l 7827 5153 l
 7808 5147 l 7789 5140 l 7771 5135 l 7754 5129 l 7738 5124 l
 7722 5119 l 7707 5115 l 7692 5110 l 7678 5106 l 7663 5102 l
 7648 5098 l 7633 5094 l 7618 5089 l 7603 5086 l 7588 5082 l
 7573 5078 l 7559 5075 l 7545 5071 l 7531 5068 l 7518 5065 l
 7505 5062 l 7493 5059 l 7481 5057 l 7468 5054 l 7455 5051 l
 7440 5048 l 7425 5046 l 7410 5043 l 7393 5040 l 7376 5036 l
 7359 5033 l 7341 5031 l 7323 5028 l 7305 5025 l 7287 5022 l
 7269 5020 l 7250 5017 l 7232 5015 l 7214 5012 l 7194 5010 l
 7174 5008 l 7153 5005 l 7131 5003 l 7108 5000 l 7085 4998 l
 7061 4996 l 7037 4993 l 7014 4991 l 6990 4989 l 6968 4987 l
 6946 4985 l 6925 4984 l 6905 4982 l 6886 4981 l 6867 4980 l
 6849 4978 l 6831 4977 l 6813 4977 l 6795 4976 l 6777 4975 l
 6758 4975 l 6739 4974 l 6720 4974 l 6701 4974 l 6682 4974 l
 6662 4974 l 6643 4975 l 6624 4975 l 6605 4976 l 6586 4977 l
 6568 4977 l 6549 4978 l 6530 4980 l 6512 4981 l 6493 4982 l
 6474 4983 l 6454 4985 l 6433 4986 l 6411 4988 l 6388 4990 l
 6364 4992 l 6340 4994 l 6315 4997 l 6290 4999 l 6266 5002 l
 6241 5004 l 6216 5007 l 6192 5010 l 6169 5013 l 6146 5016 l
 6123 5018 l 6101 5021 l 6080 5025 l 6058 5028 l 6036 5031 l
 6014 5034 l 5992 5038 l 5969 5042 l 5946 5046 l 5923 5050 l
 5899 5054 l 5876 5059 l 5852 5063 l 5829 5068 l 5806 5072 l
 5784 5077 l 5763 5081 l 5743 5086 l 5723 5090 l 5704 5094 l
 5686 5099 l 5669 5103 l 5652 5107 l 5632 5112 l 5612 5117 l
 5592 5123 l 5571 5129 l 5551 5134 l 5531 5140 l 5511 5147 l
 5491 5153 l 5472 5160 l 5453 5166 l 5434 5173 l 5417 5179 l
 5400 5185 l 5383 5192 l 5368 5198 l 5352 5205 l 5336 5211 l
 5321 5218 l 5305 5225 l 5288 5232 l 5272 5240 l 5255 5248 l
 5238 5256 l 5221 5265 l 5205 5273 l 5189 5281 l 5174 5289 l
 5160 5297 l 5146 5304 l 5134 5311 l 5123 5318 l 5112 5325 l
 5096 5335 l 5081 5345 l 5067 5355 l 5054 5365 l 5042 5375 l
 5031 5384 l 5022 5393 l 5013 5401 l 5006 5408 l 5000 5415 l
 4992 5422 l 4985 5430 l 4977 5438 l 4970 5447 l 4962 5456 l
 4954 5466 l 4947 5477 l 4940 5490 l 4934 5499 l 4929 5509 l
 4922 5520 l 4916 5532 l 4910 5545 l 4903 5558 l 4897 5572 l
 4891 5585 l 4885 5598 l 4880 5610 l 4876 5621 l 4872 5632 l
 4868 5644 l 4865 5656 l 4863 5668 l 4861 5679 l 4860 5691 l
 4860 5702 l 4860 5713 l 4861 5724 l 4863 5734 l 4865 5745 l
 4867 5755 l 4870 5766 l 4873 5779 l 4878 5792 l 4883 5806 l
 4888 5819 l 4895 5833 l 4902 5847 l 4909 5860 l 4917 5872 l
 4924 5882 l 4932 5893 l 4941 5904 l 4950 5915 l 4961 5927 l
 4972 5938 l 4983 5950 l 4994 5961 l 5005 5972 l 5016 5981 l
 5027 5991 l 5037 6000 l 5047 6008 l 5058 6016 l 5069 6025 l
 5081 6034 l 5093 6042 l 5106 6051 l 5118 6059 l 5131 6068 l
 5143 6075 l 5156 6083 l 5168 6090 l 5180 6097 l 5192 6104 l
 5205 6111 l 5218 6118 l 5232 6126 l 5247 6133 l 5262 6141 l
 5277 6148 l 5292 6156 l 5306 6162 l 5319 6168 l 5332 6174 l
 5345 6180 l 5356 6185 l 5369 6189 l 5381 6194 l 5394 6199 l
 5408 6204 l 5423 6210 l 5438 6215 l 5453 6220 l 5468 6225 l
 5484 6230 l 5500 6234 l 5517 6240 l 5530 6243 l 5544 6248 l
 5559 6252 l 5575 6257 l 5592 6262 l 5610 6267 l 5628 6272 l
 5647 6277 l 5665 6282 l 5684 6287 l 5703 6292 l 5721 6297 l
 5738 6302 l 5755 6306 l 5771 6311 l 5787 6315 l 5802 6318 l
 5818 6322 l 5833 6326 l 5849 6329 l 5865 6333 l 5882 6336 l
 5899 6340 l 5916 6343 l 5933 6347 l 5950 6350 l 5967 6353 l
 5983 6356 l 6000 6359 l 6017 6362 l 6033 6364 l 6050 6367 l
 6067 6370 l 6084 6372 l 6103 6375 l 6122 6378 l 6142 6380 l
 6162 6383 l 6183 6386 l 6204 6388 l 6224 6391 l 6244 6394 l
 6263 6396 l 6282 6398 l 6298 6400 l 6314 6402 l 6329 6403 l
 6342 6405 l 6361 6406 l 6379 6408 l 6396 6409 l 6413 6410 l
 6430 6411 l 6447 6411 l 6462 6412 l 6472 6412 l 6476 6412 l

 6477 6412 l gs col0 s gr 
/Times-Bold ff 317.50 scf sf
6570 7065 m
gs 1 -1 sc (w) col0 sh gr
/Times-Bold ff 317.50 scf sf
7965 5670 m
gs 1 -1 sc (y) col0 sh gr
/Times-Bold ff 317.50 scf sf
6660 4410 m
gs 1 -1 sc (z) col0 sh gr
/Times-Bold ff 317.50 scf sf
6660 6210 m
gs 1 -1 sc (x) col0 sh gr
/Times-Bold ff 317.50 scf sf
8055 6525 m
gs 1 -1 sc (I) col0 sh gr
/Times-Bold ff 317.50 scf sf
3825 4770 m
gs 1 -1 sc (b) col0 sh gr
/Times-Bold ff 317.50 scf sf
6525 2250 m
gs 1 -1 sc (2 R) col0 sh gr
% here ends figure;
pagefooter
showpage
%%Trailer
%EOF
