%!PS-Adobe-3.0 EPSF-3.0
%%Title: CoaxialRings.fig
%%Creator: fig2dev Version 3.2.7a
%%CreationDate: 2024-03-29 14:29:53
%%BoundingBox: 0 0 173 155
%%Magnification: 1.0000
%%EndComments
%%BeginProlog
/$F2psDict 200 dict def
$F2psDict begin
$F2psDict /mtrx matrix put
/col-1 {0 setgray} bind def
/col0 {0.000 0.000 0.000 srgb} bind def
/col7 {1.000 1.000 1.000 srgb} bind def

end

/cp {closepath} bind def
/ef {eofill} bind def
/gr {grestore} bind def
/gs {gsave} bind def
/sa {save} bind def
/rs {restore} bind def
/l {lineto} bind def
/rl {rlineto} bind def
/m {moveto} bind def
/rm {rmoveto} bind def
/n {newpath} bind def
/s {stroke} bind def
/sh {show} bind def
/slc {setlinecap} bind def
/slj {setlinejoin} bind def
/slw {setlinewidth} bind def
/srgb {setrgbcolor} bind def
/rot {rotate} bind def
/sc {scale} bind def
/sd {setdash} bind def
/ff {findfont} bind def
/sf {setfont} bind def
/scf {scalefont} bind def
/sw {stringwidth} bind def
/tr {translate} bind def
/tnt {dup dup currentrgbcolor
  4 -2 roll dup 1 exch sub 3 -1 roll mul add
  4 -2 roll dup 1 exch sub 3 -1 roll mul add
  4 -2 roll dup 1 exch sub 3 -1 roll mul add srgb}
  bind def
/shd {dup dup currentrgbcolor 4 -2 roll mul 4 -2 roll mul
  4 -2 roll mul srgb} bind def
 /DrawEllipse {
	/endangle exch def
	/startangle exch def
	/yrad exch def
	/xrad exch def
	/y exch def
	/x exch def
	/savematrix mtrx currentmatrix def
	x y tr xrad yrad sc 0 0 1 startangle endangle arc
	closepath
	savematrix setmatrix
	} def

/$F2psBegin {$F2psDict begin /$F2psEnteredState save def} def
/$F2psEnd {$F2psEnteredState restore end} def

/pageheader {
sa
n 0 155 m 0 0 l 173 0 l 173 155 l cp clip
-336.4 389.3 tr
1 -1 sc
$F2psBegin
10 setmiterlimit
0 slj 0 slc
 0.06299 0.06299 sc
} bind def
/pagefooter {
$F2psEnd
restore
} bind def
%%EndProlog
pageheader
%
% Fig objects follow
%
% 
% here starts figure with depth 50
% Ellipse
30.000 slw
n 6660 5087 900 405 0 360 DrawEllipse gs col0 s gr
% Ellipse
n 6666 5670 900 405 0 360 DrawEllipse gs col0 s gr
% Polyline
0 slj
0 slc
7.500 slw
gs  clippath
7927 5663 m 7927 5677 l 7783 5700 l 7903 5670 l 7783 5640 l cp
eoclip
n 6660 5670 m
 7920 5670 l gs col0 s gr gr
% arrowhead
n 7783 5640 m 7903 5670 l 7783 5700 l  col0 s
% Polyline
gs  clippath
6653 4448 m 6667 4448 l 6690 4592 l 6660 4472 l 6630 4592 l cp
eoclip
n 6660 5670 m
 6660 4455 l gs col0 s gr gr
% arrowhead
n 6630 4592 m 6660 4472 l 6690 4592 l  col0 s
% Polyline
gs  clippath
6667 6037 m 6653 6037 l 6630 5893 l 6660 6013 l 6690 5893 l cp
eoclip
n 6660 5670 m
 6660 6030 l gs col0 s gr gr
% arrowhead
n 6690 5893 m 6660 6013 l 6630 5893 l  col0 s
% Polyline
30.000 slw
gs  clippath
7433 5871 m 7449 5903 l 7223 6063 l 7169 5956 l cp
eoclip
n 7245 5985 m
 7425 5895 l gs col0 s gr gr
% arrowhead
7.500 slw
n 7223 6063 m 7411 5902 l 7169 5956 l 7223 6063 l  cp gs 0.00 setgray ef gr  col0 s
% Polyline
15.000 slw
gs  clippath
7571 3995 m 7571 4016 l 7303 4065 l 7543 4005 l 7303 3945 l cp
5750 4016 m 5750 3995 l 6017 3945 l 5777 4005 l 6017 4065 l cp
eoclip
n 5760 4005 m
 7560 4005 l gs col0 s gr gr
% arrowhead
7.500 slw
n 6017 4065 m 5777 4005 l 6017 3945 l  col0 s
% arrowhead
n 7303 3945 m 7543 4005 l 7303 4065 l  col0 s
% Polyline
30.000 slw
gs  clippath
7433 5286 m 7449 5318 l 7223 5478 l 7169 5371 l cp
eoclip
n 7245 5400 m
 7425 5310 l gs col0 s gr gr
% arrowhead
7.500 slw
n 7223 5478 m 7411 5317 l 7169 5371 l 7223 5478 l  cp gs 0.00 setgray ef gr  col0 s
% Polyline
 [60] 0 sd
n 6660 5670 m
 7470 5850 l gs col0 s gr  [] 0 sd
% Polyline
 [60] 0 sd
n 6660 5085 m
 7200 4770 l gs col0 s gr  [] 0 sd
% Polyline
15.000 slw
gs  clippath
5480 5030 m 5501 5030 l 5520 5177 l 5490 5057 l 5460 5177 l cp
5501 5681 m 5480 5681 l 5460 5533 l 5490 5653 l 5520 5533 l cp
eoclip
n 5490 5670 m
 5490 5040 l gs col0 s gr gr
% arrowhead
7.500 slw
n 5520 5533 m 5490 5653 l 5460 5533 l  col0 s
% arrowhead
n 5460 5177 m 5490 5057 l 5520 5177 l  col0 s
/Times-Bold ff 317.50 scf sf
7965 5670 m
gs 1 -1 sc (y) col0 sh gr
/Times-Bold ff 317.50 scf sf
6660 4410 m
gs 1 -1 sc (z) col0 sh gr
/Times-Bold ff 317.50 scf sf
6525 5895 m
gs 1 -1 sc (x) col0 sh gr
/Times-Bold ff 317.50 scf sf
7380 6165 m
gs 1 -1 sc (I) col0 sh gr
/Times-Bold ff 317.50 scf sf
6615 3870 m
gs 1 -1 sc (2 R) col0 sh gr
/Times-Bold ff 317.50 scf sf
7650 5940 m
gs 1 -1 sc (phi1) col0 sh gr
/Times-Bold ff 317.50 scf sf
7290 4680 m
gs 1 -1 sc (phi2) col0 sh gr
/Times-Bold ff 317.50 scf sf
5355 5400 m
gs 1 -1 sc (h) col0 sh gr
% here ends figure;
pagefooter
showpage
%%Trailer
%EOF
