#FIG 3.2  Produced by xfig version 3.2.7a
Landscape
Center
Metric
A4
100.00
Single
-2
1200 2
1 1 0 3 0 7 50 -1 -1 0.000 1 0.0000 6660 5087 900 405 6660 5087 7560 5087
1 1 0 3 0 7 50 -1 -1 0.000 1 0.0000 6666 5670 900 405 6666 5670 7566 5670
2 1 0 1 0 7 50 -1 -1 0.000 0 0 -1 1 0 2
	0 0 1.00 60.00 120.00
	 6660 5670 7920 5670
2 1 0 1 0 7 50 -1 -1 0.000 0 0 -1 1 0 2
	0 0 1.00 60.00 120.00
	 6660 5670 6660 4455
2 1 0 1 0 7 50 -1 -1 0.000 0 0 -1 1 0 2
	0 0 1.00 60.00 120.00
	 6660 5670 6660 6030
2 1 0 3 0 7 50 -1 -1 0.000 0 0 -1 1 0 2
	1 1 1.00 120.00 240.00
	 7245 5985 7425 5895
2 1 0 2 0 7 50 -1 -1 0.000 0 0 -1 1 1 2
	0 0 1.00 120.00 240.00
	0 0 1.00 120.00 240.00
	 5760 4005 7560 4005
2 1 0 3 0 7 50 -1 -1 0.000 0 0 -1 1 0 2
	1 1 1.00 120.00 240.00
	 7245 5400 7425 5310
2 1 1 1 0 7 50 -1 -1 4.000 0 0 -1 0 0 2
	 6660 5670 7470 5850
2 1 1 1 0 7 50 -1 -1 4.000 0 0 -1 0 0 2
	 6660 5085 7200 4770
2 1 0 2 0 7 50 -1 -1 0.000 0 0 -1 1 1 2
	0 0 1.00 60.00 120.00
	0 0 1.00 60.00 120.00
	 5490 5670 5490 5040
4 0 0 50 -1 2 20 0.0000 4 120 90 7965 5670 y\001
4 0 0 50 -1 2 20 0.0000 4 90 90 6660 4410 z\001
4 0 0 50 -1 2 20 0.0000 4 90 90 6525 5895 x\001
4 0 0 50 -1 2 20 0.0000 4 135 90 7380 6165 I\001
4 0 0 50 -1 2 20 0.0000 4 135 270 6615 3870 2 R\001
4 0 0 50 -1 2 20 0.0000 4 165 360 7650 5940 phi1\001
4 0 0 50 -1 2 20 0.0000 4 165 360 7290 4680 phi2\001
4 0 0 50 -1 2 20 0.0000 4 135 90 5355 5400 h\001
