%!PS-Adobe-3.0 EPSF-3.0
%%Title: Helix.fig
%%Creator: fig2dev Version 3.2.7a
%%CreationDate: 2024-03-08 14:25:41
%%BoundingBox: 0 0 293 184
%%Magnification: 1.0000
%%EndComments
%%BeginProlog
/$F2psDict 200 dict def
$F2psDict begin
$F2psDict /mtrx matrix put
/col-1 {0 setgray} bind def
/col0 {0.000 0.000 0.000 srgb} bind def
/col7 {1.000 1.000 1.000 srgb} bind def

end

/cp {closepath} bind def
/ef {eofill} bind def
/gr {grestore} bind def
/gs {gsave} bind def
/sa {save} bind def
/rs {restore} bind def
/l {lineto} bind def
/rl {rlineto} bind def
/m {moveto} bind def
/rm {rmoveto} bind def
/n {newpath} bind def
/s {stroke} bind def
/sh {show} bind def
/slc {setlinecap} bind def
/slj {setlinejoin} bind def
/slw {setlinewidth} bind def
/srgb {setrgbcolor} bind def
/rot {rotate} bind def
/sc {scale} bind def
/sd {setdash} bind def
/ff {findfont} bind def
/sf {setfont} bind def
/scf {scalefont} bind def
/sw {stringwidth} bind def
/tr {translate} bind def
/tnt {dup dup currentrgbcolor
  4 -2 roll dup 1 exch sub 3 -1 roll mul add
  4 -2 roll dup 1 exch sub 3 -1 roll mul add
  4 -2 roll dup 1 exch sub 3 -1 roll mul add srgb}
  bind def
/shd {dup dup currentrgbcolor 4 -2 roll mul 4 -2 roll mul
  4 -2 roll mul srgb} bind def
/$F2psBegin {$F2psDict begin /$F2psEnteredState save def} def
/$F2psEnd {$F2psEnteredState restore end} def

/pageheader {
sa
n 0 184 m 0 0 l 293 0 l 293 184 l cp clip
-301.5 412.0 tr
1 -1 sc
$F2psBegin
10 setmiterlimit
0 slj 0 slc
 0.06299 0.06299 sc
} bind def
/pagefooter {
$F2psEnd
restore
} bind def
%%EndProlog
pageheader
%
% Fig objects follow
%
% 
% here starts figure with depth 50
% Polyline
0 slj
0 slc
7.500 slw
gs  clippath
7927 5663 m 7927 5677 l 7783 5700 l 7903 5670 l 7783 5640 l cp
eoclip
n 6660 5670 m
 7920 5670 l gs col0 s gr gr
% arrowhead
n 7783 5640 m 7903 5670 l 7783 5700 l  col0 s
% Polyline
gs  clippath
6653 4448 m 6667 4448 l 6690 4592 l 6660 4472 l 6630 4592 l cp
eoclip
n 6660 5670 m
 6660 4455 l gs col0 s gr gr
% arrowhead
n 6630 4592 m 6660 4472 l 6690 4592 l  col0 s
% Polyline
30.000 slw
gs  clippath
8153 6051 m 8169 6083 l 7943 6243 l 7889 6136 l cp
eoclip
n 7965 6165 m
 8145 6075 l gs col0 s gr gr
% arrowhead
7.500 slw
n 7943 6243 m 8131 6082 l 7889 6136 l 7943 6243 l  cp gs 0.00 setgray ef gr  col0 s
% Polyline
gs  clippath
6667 6037 m 6653 6037 l 6630 5893 l 6660 6013 l 6690 5893 l cp
eoclip
n 6660 5670 m
 6660 6030 l gs col0 s gr gr
% arrowhead
n 6690 5893 m 6660 6013 l 6630 5893 l  col0 s
% Polyline
15.000 slw
gs  clippath
8471 3995 m 8471 4016 l 8203 4065 l 8443 4005 l 8203 3945 l cp
4850 4016 m 4850 3995 l 5117 3945 l 4877 4005 l 5117 4065 l cp
eoclip
n 4860 4005 m
 8460 4005 l gs col0 s gr gr
% arrowhead
7.500 slw
n 5117 4065 m 4877 4005 l 5117 3945 l  col0 s
% arrowhead
n 8203 3945 m 8443 4005 l 8203 4065 l  col0 s
% Polyline
15.000 slw
gs  clippath
8876 5681 m 8855 5681 l 8835 5533 l 8865 5653 l 8895 5533 l cp
8855 5210 m 8876 5210 l 8895 5357 l 8865 5237 l 8835 5357 l cp
eoclip
n 8865 5220 m
 8865 5670 l gs col0 s gr gr
% arrowhead
7.500 slw
n 8835 5357 m 8865 5237 l 8895 5357 l  col0 s
% arrowhead
n 8895 5533 m 8865 5653 l 8835 5533 l  col0 s
% Polyline
2 slj
30.000 slw
n 6660 6390 m 6663 6390 l 6670 6389 l 6682 6389 l 6701 6387 l 6726 6386 l
 6758 6384 l 6794 6381 l 6833 6379 l 6875 6376 l 6918 6373 l
 6960 6370 l 7000 6368 l 7039 6365 l 7075 6363 l 7108 6360 l
 7139 6358 l 7167 6356 l 7193 6354 l 7217 6352 l 7239 6350 l
 7260 6348 l 7279 6347 l 7298 6345 l 7324 6342 l 7349 6340 l
 7373 6337 l 7396 6334 l 7419 6331 l 7441 6328 l 7462 6325 l
 7482 6321 l 7501 6318 l 7520 6314 l 7537 6311 l 7554 6307 l
 7569 6304 l 7584 6300 l 7598 6296 l 7613 6293 l 7627 6289 l
 7641 6284 l 7657 6280 l 7673 6275 l 7689 6270 l 7706 6265 l
 7723 6259 l 7741 6253 l 7759 6247 l 7777 6241 l 7794 6234 l
 7811 6228 l 7828 6222 l 7844 6215 l 7859 6209 l 7875 6203 l
 7891 6196 l 7906 6189 l 7922 6182 l 7939 6175 l 7956 6167 l
 7973 6159 l 7990 6150 l 8008 6141 l 8025 6133 l 8042 6124 l
 8058 6115 l 8074 6107 l 8089 6099 l 8103 6091 l 8117 6083 l
 8130 6075 l 8145 6066 l 8159 6057 l 8173 6048 l 8188 6038 l
 8202 6028 l 8217 6018 l 8231 6007 l 8244 5997 l 8257 5987 l
 8269 5977 l 8281 5967 l 8291 5958 l 8301 5949 l 8310 5940 l
 8320 5930 l 8330 5919 l 8339 5908 l 8349 5897 l 8358 5885 l
 8367 5874 l 8375 5862 l 8383 5851 l 8390 5840 l 8396 5831 l
 8402 5821 l 8408 5813 l 8414 5802 l 8419 5792 l 8425 5782 l
 8430 5771 l 8435 5761 l 8440 5751 l 8444 5741 l 8447 5732 l
 8450 5723 l 8453 5715 l 8455 5705 l 8456 5694 l 8458 5682 l
 8458 5670 l 8458 5658 l 8456 5646 l 8455 5635 l 8453 5625 l
 8450 5617 l 8447 5608 l 8444 5599 l 8440 5590 l 8435 5580 l
 8430 5570 l 8425 5561 l 8419 5552 l 8414 5543 l 8408 5535 l
 8401 5527 l 8394 5518 l 8386 5509 l 8377 5499 l 8368 5489 l
 8358 5479 l 8348 5468 l 8338 5458 l 8328 5448 l 8318 5438 l
 8310 5430 l 8302 5422 l 8293 5414 l 8284 5405 l 8274 5396 l
 8262 5386 l 8250 5375 l 8237 5365 l 8223 5354 l 8209 5344 l
 8194 5333 l 8178 5323 l 8162 5313 l 8145 5303 l 8132 5295 l
 8119 5288 l 8105 5280 l 8089 5272 l 8073 5264 l 8056 5256 l
 8038 5247 l 8019 5238 l 7999 5229 l 7979 5220 l 7958 5211 l
 7937 5202 l 7916 5193 l 7895 5184 l 7874 5176 l 7853 5168 l
 7832 5160 l 7811 5152 l 7791 5145 l 7770 5138 l 7749 5130 l
 7728 5123 l 7706 5116 l 7684 5109 l 7661 5102 l 7637 5094 l
 7613 5087 l 7589 5080 l 7564 5073 l 7539 5066 l 7514 5059 l
 7489 5052 l 7464 5046 l 7441 5040 l 7417 5034 l 7395 5029 l
 7373 5023 l 7353 5019 l 7332 5014 l 7313 5010 l 7291 5006 l
 7269 5001 l 7248 4997 l 7226 4993 l 7204 4989 l 7182 4986 l
 7159 4982 l 7137 4979 l 7115 4976 l 7094 4973 l 7072 4970 l
 7052 4968 l 7032 4965 l 7013 4963 l 6995 4962 l 6978 4960 l
 6961 4959 l 6945 4958 l 6927 4956 l 6909 4955 l 6891 4954 l
 6872 4953 l 6853 4953 l 6833 4952 l 6813 4951 l 6793 4951 l
 6772 4951 l 6752 4950 l 6731 4950 l 6711 4950 l 6691 4950 l
 6670 4950 l 6650 4950 l 6630 4950 l 6613 4950 l 6596 4950 l
 6578 4950 l 6559 4950 l 6539 4950 l 6519 4950 l 6497 4951 l
 6475 4951 l 6452 4952 l 6429 4952 l 6405 4953 l 6381 4954 l
 6357 4955 l 6333 4956 l 6310 4957 l 6286 4958 l 6263 4960 l
 6240 4961 l 6218 4963 l 6195 4965 l 6174 4967 l 6153 4969 l
 6132 4971 l 6109 4974 l 6087 4977 l 6063 4980 l 6039 4983 l
 6015 4987 l 5990 4991 l 5964 4995 l 5939 4999 l 5913 5004 l
 5888 5008 l 5863 5013 l 5838 5018 l 5813 5023 l 5790 5028 l
 5766 5033 l 5743 5039 l 5721 5044 l 5699 5049 l 5678 5055 l
 5654 5061 l 5630 5068 l 5606 5075 l 5581 5082 l 5557 5089 l
 5532 5097 l 5506 5105 l 5481 5114 l 5456 5122 l 5431 5131 l
 5406 5140 l 5382 5149 l 5359 5157 l 5337 5166 l 5316 5174 l
 5297 5182 l 5278 5190 l 5260 5198 l 5243 5205 l 5228 5213 l
 5209 5221 l 5191 5230 l 5173 5239 l 5156 5249 l 5140 5258 l
 5124 5267 l 5108 5277 l 5093 5286 l 5079 5296 l 5066 5305 l
 5054 5314 l 5042 5323 l 5031 5331 l 5021 5339 l 5012 5347 l
 5003 5355 l 4991 5365 l 4979 5376 l 4967 5387 l 4954 5398 l
 4942 5410 l 4931 5421 l 4919 5433 l 4909 5444 l 4899 5455 l
 4890 5464 l 4882 5474 l 4875 5483 l 4867 5493 l 4860 5503 l
 4853 5513 l 4846 5524 l 4841 5535 l 4836 5546 l 4831 5557 l
 4828 5567 l 4825 5577 l 4823 5588 l 4821 5598 l 4819 5610 l
 4819 5622 l 4819 5635 l 4820 5650 l 4823 5664 l 4826 5679 l
 4831 5694 l 4837 5708 l 4845 5723 l 4851 5733 l 4859 5744 l
 4867 5755 l 4876 5767 l 4887 5779 l 4899 5792 l 4911 5805 l
 4925 5818 l 4938 5831 l 4952 5843 l 4967 5855 l 4981 5866 l
 4995 5877 l 5010 5888 l 5023 5896 l 5037 5905 l 5051 5914 l
 5066 5924 l 5082 5933 l 5098 5942 l 5115 5951 l 5132 5960 l
 5150 5969 l 5167 5978 l 5184 5986 l 5201 5994 l 5218 6002 l
 5234 6009 l 5249 6016 l 5265 6023 l 5281 6029 l 5296 6035 l
 5312 6042 l 5329 6048 l 5346 6054 l 5364 6061 l 5382 6067 l
 5400 6073 l 5418 6079 l 5436 6085 l 5454 6090 l 5471 6095 l
 5488 6100 l 5504 6104 l 5519 6109 l 5535 6113 l 5551 6116 l
 5566 6120 l 5583 6124 l 5600 6127 l 5617 6131 l 5636 6134 l
 5655 6138 l 5674 6141 l 5694 6145 l 5714 6148 l 5734 6151 l
 5754 6154 l 5775 6157 l 5795 6160 l 5815 6162 l 5835 6165 l
 5854 6167 l 5873 6170 l 5893 6172 l 5914 6174 l 5936 6177 l
 5959 6179 l 5983 6182 l 6007 6184 l 6031 6186 l 6056 6189 l
 6080 6191 l 6104 6193 l 6127 6195 l 6150 6197 l 6171 6198 l
 6193 6200 l 6213 6201 l 6233 6203 l 6254 6204 l 6276 6205 l
 6297 6206 l 6319 6207 l 6341 6207 l 6362 6208 l 6383 6209 l
 6404 6209 l 6424 6209 l 6443 6210 l 6461 6210 l 6478 6210 l
 6493 6210 l 6507 6210 l 6520 6210 l 6533 6210 l 6550 6210 l
 6566 6210 l 6582 6210 l 6598 6210 l 6614 6210 l 6631 6210 l
 6645 6210 l 6655 6210 l 6659 6210 l
 6660 6210 l gs col0 s gr % Polyline
n 6660 6213 m 6663 6213 l 6670 6212 l 6682 6212 l 6701 6210 l 6726 6209 l
 6758 6207 l 6794 6204 l 6833 6202 l 6875 6199 l 6918 6196 l
 6960 6193 l 7000 6191 l 7039 6188 l 7075 6186 l 7108 6183 l
 7139 6181 l 7167 6179 l 7193 6177 l 7217 6175 l 7239 6173 l
 7260 6171 l 7279 6170 l 7298 6168 l 7324 6165 l 7349 6163 l
 7373 6160 l 7396 6157 l 7419 6154 l 7441 6151 l 7462 6148 l
 7482 6144 l 7501 6141 l 7520 6137 l 7537 6134 l 7554 6130 l
 7569 6127 l 7584 6123 l 7598 6119 l 7613 6116 l 7627 6112 l
 7641 6107 l 7657 6103 l 7673 6098 l 7689 6093 l 7706 6088 l
 7723 6082 l 7741 6076 l 7759 6070 l 7777 6064 l 7794 6057 l
 7811 6051 l 7828 6045 l 7844 6038 l 7859 6032 l 7875 6026 l
 7891 6019 l 7906 6012 l 7922 6005 l 7939 5998 l 7956 5990 l
 7973 5982 l 7990 5973 l 8008 5964 l 8025 5956 l 8042 5947 l
 8058 5938 l 8074 5930 l 8089 5922 l 8103 5914 l 8117 5906 l
 8130 5898 l 8145 5889 l 8159 5880 l 8173 5871 l 8188 5861 l
 8202 5851 l 8217 5841 l 8231 5830 l 8244 5820 l 8257 5810 l
 8269 5800 l 8281 5790 l 8291 5781 l 8301 5772 l 8310 5763 l
 8320 5753 l 8330 5742 l 8339 5731 l 8349 5720 l 8358 5708 l
 8367 5697 l 8375 5685 l 8383 5674 l 8390 5663 l 8396 5654 l
 8402 5644 l 8408 5636 l 8414 5625 l 8419 5615 l 8425 5605 l
 8430 5594 l 8435 5584 l 8440 5574 l 8444 5564 l 8447 5555 l
 8450 5546 l 8453 5538 l 8455 5528 l 8456 5517 l 8458 5505 l
 8458 5493 l 8458 5481 l 8456 5469 l 8455 5458 l 8453 5448 l
 8450 5440 l 8447 5431 l 8444 5422 l 8440 5413 l 8435 5403 l
 8430 5393 l 8425 5384 l 8419 5375 l 8414 5366 l 8408 5358 l
 8401 5350 l 8394 5341 l 8386 5332 l 8377 5322 l 8368 5312 l
 8358 5302 l 8348 5291 l 8338 5281 l 8328 5271 l 8318 5261 l
 8310 5253 l 8302 5245 l 8293 5237 l 8284 5228 l 8274 5219 l
 8262 5209 l 8250 5198 l 8237 5188 l 8223 5177 l 8209 5167 l
 8194 5156 l 8178 5146 l 8162 5136 l 8145 5126 l 8132 5118 l
 8119 5111 l 8105 5103 l 8089 5095 l 8073 5087 l 8056 5079 l
 8038 5070 l 8019 5061 l 7999 5052 l 7979 5043 l 7958 5034 l
 7937 5025 l 7916 5016 l 7895 5007 l 7874 4999 l 7853 4991 l
 7832 4983 l 7811 4975 l 7791 4968 l 7770 4961 l 7749 4953 l
 7728 4946 l 7706 4939 l 7684 4932 l 7661 4925 l 7637 4917 l
 7613 4910 l 7589 4903 l 7564 4896 l 7539 4889 l 7514 4882 l
 7489 4875 l 7464 4869 l 7441 4863 l 7417 4857 l 7395 4852 l
 7373 4846 l 7353 4842 l 7332 4837 l 7313 4833 l 7291 4829 l
 7269 4824 l 7248 4820 l 7226 4816 l 7204 4812 l 7182 4809 l
 7159 4805 l 7137 4802 l 7115 4799 l 7094 4796 l 7072 4793 l
 7052 4791 l 7032 4788 l 7013 4786 l 6995 4785 l 6978 4783 l
 6961 4782 l 6945 4781 l 6927 4779 l 6909 4778 l 6891 4777 l
 6872 4776 l 6853 4776 l 6833 4775 l 6813 4774 l 6793 4774 l
 6772 4774 l 6752 4773 l 6731 4773 l 6711 4773 l 6691 4773 l
 6670 4773 l 6650 4773 l 6630 4773 l 6613 4773 l 6596 4773 l
 6578 4773 l 6559 4773 l 6539 4773 l 6519 4773 l 6497 4774 l
 6475 4774 l 6452 4775 l 6429 4775 l 6405 4776 l 6381 4777 l
 6357 4778 l 6333 4779 l 6310 4780 l 6286 4781 l 6263 4783 l
 6240 4784 l 6218 4786 l 6195 4788 l 6174 4790 l 6153 4792 l
 6132 4794 l 6109 4797 l 6087 4800 l 6063 4803 l 6039 4806 l
 6015 4810 l 5990 4814 l 5964 4818 l 5939 4822 l 5913 4827 l
 5888 4831 l 5863 4836 l 5838 4841 l 5813 4846 l 5790 4851 l
 5766 4856 l 5743 4862 l 5721 4867 l 5699 4872 l 5678 4878 l
 5654 4884 l 5630 4891 l 5606 4898 l 5581 4905 l 5557 4912 l
 5532 4920 l 5506 4928 l 5481 4937 l 5456 4945 l 5431 4954 l
 5406 4963 l 5382 4972 l 5359 4980 l 5337 4989 l 5316 4997 l
 5297 5005 l 5278 5013 l 5260 5021 l 5243 5028 l 5228 5036 l
 5209 5044 l 5191 5053 l 5173 5062 l 5156 5072 l 5140 5081 l
 5124 5090 l 5108 5100 l 5093 5109 l 5079 5119 l 5066 5128 l
 5054 5137 l 5042 5146 l 5031 5154 l 5021 5162 l 5012 5170 l
 5003 5178 l 4991 5188 l 4979 5199 l 4967 5210 l 4954 5221 l
 4942 5233 l 4931 5244 l 4919 5256 l 4909 5267 l 4899 5278 l
 4890 5287 l 4882 5297 l 4875 5306 l 4867 5316 l 4860 5326 l
 4853 5336 l 4846 5347 l 4841 5358 l 4836 5369 l 4831 5380 l
 4828 5390 l 4825 5400 l 4823 5411 l 4821 5421 l 4819 5433 l
 4819 5445 l 4819 5458 l 4820 5473 l 4823 5487 l 4826 5502 l
 4831 5517 l 4837 5531 l 4845 5546 l 4851 5556 l 4859 5567 l
 4867 5578 l 4876 5590 l 4887 5602 l 4899 5615 l 4911 5628 l
 4925 5641 l 4938 5654 l 4952 5666 l 4967 5678 l 4981 5689 l
 4995 5700 l 5010 5711 l 5023 5719 l 5037 5728 l 5051 5737 l
 5066 5747 l 5082 5756 l 5098 5765 l 5115 5774 l 5132 5783 l
 5150 5792 l 5167 5801 l 5184 5809 l 5201 5817 l 5218 5825 l
 5234 5832 l 5249 5839 l 5265 5846 l 5281 5852 l 5296 5858 l
 5312 5865 l 5329 5871 l 5346 5877 l 5364 5884 l 5382 5890 l
 5400 5896 l 5418 5902 l 5436 5908 l 5454 5913 l 5471 5918 l
 5488 5923 l 5504 5927 l 5519 5932 l 5535 5936 l 5551 5939 l
 5566 5943 l 5583 5947 l 5600 5950 l 5617 5954 l 5636 5957 l
 5655 5961 l 5674 5964 l 5694 5968 l 5714 5971 l 5734 5974 l
 5754 5977 l 5775 5980 l 5795 5983 l 5815 5985 l 5835 5988 l
 5854 5990 l 5873 5993 l 5893 5995 l 5914 5997 l 5936 6000 l
 5959 6002 l 5983 6005 l 6007 6007 l 6031 6009 l 6056 6012 l
 6080 6014 l 6104 6016 l 6127 6018 l 6150 6020 l 6171 6021 l
 6193 6023 l 6213 6024 l 6233 6026 l 6254 6027 l 6276 6028 l
 6297 6029 l 6319 6030 l 6341 6030 l 6362 6031 l 6383 6032 l
 6404 6032 l 6424 6032 l 6443 6033 l 6461 6033 l 6478 6033 l
 6493 6033 l 6507 6033 l 6520 6033 l 6533 6033 l 6550 6033 l
 6566 6033 l 6582 6033 l 6598 6033 l 6614 6033 l 6631 6033 l
 6645 6033 l 6655 6033 l 6659 6033 l
 6660 6033 l gs col0 s gr % Polyline
n 6660 6030 m 6663 6030 l 6670 6029 l 6682 6029 l 6701 6027 l 6726 6026 l
 6758 6024 l 6794 6021 l 6833 6019 l 6875 6016 l 6918 6013 l
 6960 6010 l 7000 6008 l 7039 6005 l 7075 6003 l 7108 6000 l
 7139 5998 l 7167 5996 l 7193 5994 l 7217 5992 l 7239 5990 l
 7260 5988 l 7279 5987 l 7298 5985 l 7324 5982 l 7349 5980 l
 7373 5977 l 7396 5974 l 7419 5971 l 7441 5968 l 7462 5965 l
 7482 5961 l 7501 5958 l 7520 5954 l 7537 5951 l 7554 5947 l
 7569 5944 l 7584 5940 l 7598 5936 l 7613 5933 l 7627 5929 l
 7641 5924 l 7657 5920 l 7673 5915 l 7689 5910 l 7706 5905 l
 7723 5899 l 7741 5893 l 7759 5887 l 7777 5881 l 7794 5874 l
 7811 5868 l 7828 5862 l 7844 5855 l 7859 5849 l 7875 5843 l
 7891 5836 l 7906 5829 l 7922 5822 l 7939 5815 l 7956 5807 l
 7973 5799 l 7990 5790 l 8008 5781 l 8025 5773 l 8042 5764 l
 8058 5755 l 8074 5747 l 8089 5739 l 8103 5731 l 8117 5723 l
 8130 5715 l 8145 5706 l 8159 5697 l 8173 5688 l 8188 5678 l
 8202 5668 l 8217 5658 l 8231 5647 l 8244 5637 l 8257 5627 l
 8269 5617 l 8281 5607 l 8291 5598 l 8301 5589 l 8310 5580 l
 8320 5570 l 8330 5559 l 8339 5548 l 8349 5537 l 8358 5525 l
 8367 5514 l 8375 5502 l 8383 5491 l 8390 5480 l 8396 5471 l
 8402 5461 l 8408 5453 l 8414 5442 l 8419 5432 l 8425 5422 l
 8430 5411 l 8435 5401 l 8440 5391 l 8444 5381 l 8447 5372 l
 8450 5363 l 8453 5355 l 8455 5345 l 8456 5334 l 8458 5322 l
 8458 5310 l 8458 5298 l 8456 5286 l 8455 5275 l 8453 5265 l
 8450 5257 l 8447 5248 l 8444 5239 l 8440 5230 l 8435 5220 l
 8430 5210 l 8425 5201 l 8419 5192 l 8414 5183 l 8408 5175 l
 8401 5167 l 8394 5158 l 8386 5149 l 8377 5139 l 8368 5129 l
 8358 5119 l 8348 5108 l 8338 5098 l 8328 5088 l 8318 5078 l
 8310 5070 l 8302 5062 l 8293 5054 l 8284 5045 l 8274 5036 l
 8262 5026 l 8250 5015 l 8237 5005 l 8223 4994 l 8209 4984 l
 8194 4973 l 8178 4963 l 8162 4953 l 8145 4943 l 8132 4935 l
 8119 4928 l 8105 4920 l 8089 4912 l 8073 4904 l 8056 4896 l
 8038 4887 l 8019 4878 l 7999 4869 l 7979 4860 l 7958 4851 l
 7937 4842 l 7916 4833 l 7895 4824 l 7874 4816 l 7853 4808 l
 7832 4800 l 7811 4792 l 7791 4785 l 7770 4778 l 7749 4770 l
 7728 4763 l 7706 4756 l 7684 4749 l 7661 4742 l 7637 4734 l
 7613 4727 l 7589 4720 l 7564 4713 l 7539 4706 l 7514 4699 l
 7489 4692 l 7464 4686 l 7441 4680 l 7417 4674 l 7395 4669 l
 7373 4663 l 7353 4659 l 7332 4654 l 7313 4650 l 7291 4646 l
 7269 4641 l 7248 4637 l 7226 4633 l 7204 4629 l 7182 4626 l
 7159 4622 l 7137 4619 l 7115 4616 l 7094 4613 l 7072 4610 l
 7052 4608 l 7032 4605 l 7013 4603 l 6995 4602 l 6978 4600 l
 6961 4599 l 6945 4598 l 6927 4596 l 6909 4595 l 6891 4594 l
 6872 4593 l 6853 4593 l 6833 4592 l 6813 4591 l 6793 4591 l
 6772 4591 l 6752 4590 l 6731 4590 l 6711 4590 l 6691 4590 l
 6670 4590 l 6650 4590 l 6630 4590 l 6613 4590 l 6596 4590 l
 6578 4590 l 6559 4590 l 6539 4590 l 6519 4590 l 6497 4591 l
 6475 4591 l 6452 4592 l 6429 4592 l 6405 4593 l 6381 4594 l
 6357 4595 l 6333 4596 l 6310 4597 l 6286 4598 l 6263 4600 l
 6240 4601 l 6218 4603 l 6195 4605 l 6174 4607 l 6153 4609 l
 6132 4611 l 6109 4614 l 6087 4617 l 6063 4620 l 6039 4623 l
 6015 4627 l 5990 4631 l 5964 4635 l 5939 4639 l 5913 4644 l
 5888 4648 l 5863 4653 l 5838 4658 l 5813 4663 l 5790 4668 l
 5766 4673 l 5743 4679 l 5721 4684 l 5699 4689 l 5678 4695 l
 5654 4701 l 5630 4708 l 5606 4715 l 5581 4722 l 5557 4729 l
 5532 4737 l 5506 4745 l 5481 4754 l 5456 4762 l 5431 4771 l
 5406 4780 l 5382 4789 l 5359 4797 l 5337 4806 l 5316 4814 l
 5297 4822 l 5278 4830 l 5260 4838 l 5243 4845 l 5228 4853 l
 5209 4861 l 5191 4870 l 5173 4879 l 5156 4889 l 5140 4898 l
 5124 4907 l 5108 4917 l 5093 4926 l 5079 4936 l 5066 4945 l
 5054 4954 l 5042 4963 l 5031 4971 l 5021 4979 l 5012 4987 l
 5003 4995 l 4991 5005 l 4979 5016 l 4967 5027 l 4954 5038 l
 4942 5050 l 4931 5061 l 4919 5073 l 4909 5084 l 4899 5095 l
 4890 5104 l 4882 5114 l 4875 5123 l 4867 5133 l 4860 5143 l
 4853 5153 l 4846 5164 l 4841 5175 l 4836 5186 l 4831 5197 l
 4828 5207 l 4825 5217 l 4823 5228 l 4821 5238 l 4819 5250 l
 4819 5262 l 4819 5275 l 4820 5290 l 4823 5304 l 4826 5319 l
 4831 5334 l 4837 5348 l 4845 5363 l 4851 5373 l 4859 5384 l
 4867 5395 l 4876 5407 l 4887 5419 l 4899 5432 l 4911 5445 l
 4925 5458 l 4938 5471 l 4952 5483 l 4967 5495 l 4981 5506 l
 4995 5517 l 5010 5528 l 5023 5536 l 5037 5545 l 5051 5554 l
 5066 5564 l 5082 5573 l 5098 5582 l 5115 5591 l 5132 5600 l
 5150 5609 l 5167 5618 l 5184 5626 l 5201 5634 l 5218 5642 l
 5234 5649 l 5249 5656 l 5265 5663 l 5281 5669 l 5296 5675 l
 5312 5682 l 5329 5688 l 5346 5694 l 5364 5701 l 5382 5707 l
 5400 5713 l 5418 5719 l 5436 5725 l 5454 5730 l 5471 5735 l
 5488 5740 l 5504 5744 l 5519 5749 l 5535 5753 l 5551 5756 l
 5566 5760 l 5583 5764 l 5600 5767 l 5617 5771 l 5636 5774 l
 5655 5778 l 5674 5781 l 5694 5785 l 5714 5788 l 5734 5791 l
 5754 5794 l 5775 5797 l 5795 5800 l 5815 5802 l 5835 5805 l
 5854 5807 l 5873 5810 l 5893 5812 l 5914 5814 l 5936 5817 l
 5959 5819 l 5983 5822 l 6007 5824 l 6031 5826 l 6056 5829 l
 6080 5831 l 6104 5833 l 6127 5835 l 6150 5837 l 6171 5838 l
 6193 5840 l 6213 5841 l 6233 5843 l 6254 5844 l 6276 5845 l
 6297 5846 l 6319 5847 l 6341 5847 l 6362 5848 l 6383 5849 l
 6404 5849 l 6424 5849 l 6443 5850 l 6461 5850 l 6478 5850 l
 6493 5850 l 6507 5850 l 6520 5850 l 6533 5850 l 6550 5850 l
 6566 5850 l 6582 5850 l 6598 5850 l 6614 5850 l 6631 5850 l
 6645 5850 l 6655 5850 l 6659 5850 l
 6660 5850 l gs col0 s gr /Times-Bold ff 317.50 scf sf
7965 5670 m
gs 1 -1 sc (y) col0 sh gr
/Times-Bold ff 317.50 scf sf
6660 4410 m
gs 1 -1 sc (z) col0 sh gr
/Times-Bold ff 317.50 scf sf
8055 6525 m
gs 1 -1 sc (I) col0 sh gr
/Times-Bold ff 317.50 scf sf
6795 5940 m
gs 1 -1 sc (x) col0 sh gr
/Times-Bold ff 317.50 scf sf
6525 3825 m
gs 1 -1 sc (2 R) col0 sh gr
/Times-Bold ff 317.50 scf sf
9045 5490 m
gs 1 -1 sc (L   ) col0 sh gr
/Times-Roman ff 190.50 scf sf
5355 3645 m
gs 1 -1 sc () col0 sh gr
% here ends figure;
pagefooter
showpage
%%Trailer
%EOF
