%!PS-Adobe-3.0 EPSF-3.0
%%Title: HelmholtzWire.fig
%%Creator: fig2dev Version 3.2.7a
%%CreationDate: 2024-03-13 15:26:50
%%BoundingBox: 0 0 308 226
%%Magnification: 1.0000
%%EndComments
%%BeginProlog
/$F2psDict 200 dict def
$F2psDict begin
$F2psDict /mtrx matrix put
/col-1 {0 setgray} bind def
/col0 {0.000 0.000 0.000 srgb} bind def
/col7 {1.000 1.000 1.000 srgb} bind def

end

/cp {closepath} bind def
/ef {eofill} bind def
/gr {grestore} bind def
/gs {gsave} bind def
/sa {save} bind def
/rs {restore} bind def
/l {lineto} bind def
/rl {rlineto} bind def
/m {moveto} bind def
/rm {rmoveto} bind def
/n {newpath} bind def
/s {stroke} bind def
/sh {show} bind def
/slc {setlinecap} bind def
/slj {setlinejoin} bind def
/slw {setlinewidth} bind def
/srgb {setrgbcolor} bind def
/rot {rotate} bind def
/sc {scale} bind def
/sd {setdash} bind def
/ff {findfont} bind def
/sf {setfont} bind def
/scf {scalefont} bind def
/sw {stringwidth} bind def
/tr {translate} bind def
/tnt {dup dup currentrgbcolor
  4 -2 roll dup 1 exch sub 3 -1 roll mul add
  4 -2 roll dup 1 exch sub 3 -1 roll mul add
  4 -2 roll dup 1 exch sub 3 -1 roll mul add srgb}
  bind def
/shd {dup dup currentrgbcolor 4 -2 roll mul 4 -2 roll mul
  4 -2 roll mul srgb} bind def
/$F2psBegin {$F2psDict begin /$F2psEnteredState save def} def
/$F2psEnd {$F2psEnteredState restore end} def

/pageheader {
sa
n 0 226 m 0 0 l 308 0 l 308 226 l cp clip
-292.2 451.5 tr
1 -1 sc
$F2psBegin
10 setmiterlimit
0 slj 0 slc
 0.06299 0.06299 sc
} bind def
/pagefooter {
$F2psEnd
restore
} bind def
%%EndProlog
pageheader
%
% Fig objects follow
%
% 
% here starts figure with depth 50
% Polyline
0 slj
0 slc
7.500 slw
gs  clippath
7927 5663 m 7927 5677 l 7783 5700 l 7903 5670 l 7783 5640 l cp
eoclip
n 6660 5670 m
 7920 5670 l gs col0 s gr gr
% arrowhead
n 7783 5640 m 7903 5670 l 7783 5700 l  col0 s
% Polyline
gs  clippath
6653 4448 m 6667 4448 l 6690 4592 l 6660 4472 l 6630 4592 l cp
eoclip
n 6660 5670 m
 6660 4455 l gs col0 s gr gr
% arrowhead
n 6630 4592 m 6660 4472 l 6690 4592 l  col0 s
% Polyline
15.000 slw
gs  clippath
8471 3995 m 8471 4016 l 8203 4065 l 8443 4005 l 8203 3945 l cp
4850 4016 m 4850 3995 l 5117 3945 l 4877 4005 l 5117 4065 l cp
eoclip
n 4860 4005 m
 8460 4005 l gs col0 s gr gr
% arrowhead
7.500 slw
n 5117 4065 m 4877 4005 l 5117 3945 l  col0 s
% arrowhead
n 8203 3945 m 8443 4005 l 8203 4065 l  col0 s
% Polyline
30.000 slw
n 5040 4680 m
 8550 4680 l gs col0 s gr % Polyline
n 4680 5490 m
 8190 5490 l gs col0 s gr % Polyline
n 4680 5490 m
 5040 4680 l gs col0 s gr % Polyline
n 8173 5483 m
 8533 4673 l gs col0 s gr % Polyline
n 4672 6926 m
 5032 6116 l gs col0 s gr % Polyline
n 5040 6120 m
 8550 6120 l gs col0 s gr % Polyline
n 4680 6930 m
 8190 6930 l gs col0 s gr % Polyline
7.500 slw
gs  clippath
8197 6937 m 8183 6937 l 8160 6793 l 8190 6913 l 8220 6793 l cp
8183 5483 m 8197 5483 l 8220 5627 l 8190 5507 l 8160 5627 l cp
eoclip
n 8190 5490 m
 8190 6930 l gs col0 s gr gr
% arrowhead
n 8160 5627 m 8190 5507 l 8220 5627 l  col0 s
% arrowhead
n 8220 6793 m 8190 6913 l 8160 6793 l  col0 s
% Polyline
gs  clippath
8546 4689 m 8541 4676 l 8666 4601 l 8565 4674 l 8688 4657 l cp
eoclip
n 8550 4680 m
 8775 4590 l gs col0 s gr gr
% arrowhead
n 8688 4657 m 8565 4674 l 8666 4601 l  col0 s
% Polyline
gs  clippath
8412 6381 m 8424 6387 l 8345 6598 l 8291 6571 l cp
eoclip
n 8325 6570 m
 8415 6390 l gs col0 s gr gr
% arrowhead
45.000 slw
n 8345 6598 m 8372 6477 l 8291 6571 l 8345 6598 l  cp gs 0.00 setgray ef gr  col0 s
% Polyline
30.000 slw
n 8165 6920 m 8350 6516 l
 8525 6110 l gs col0 s gr % Polyline
7.500 slw
gs  clippath
6529 6039 m 6516 6034 l 6545 5892 l 6531 6014 l 6601 5913 l cp
eoclip
n 6660 5670 m
 6525 6030 l gs col0 s gr gr
% arrowhead
n 6601 5913 m 6531 6014 l 6545 5892 l  col0 s
% Polyline
gs  clippath
7387 6892 m 7373 6892 l 7350 6748 l 7380 6868 l 7410 6748 l cp
eoclip
n 7380 6705 m
 7380 6885 l gs col0 s gr gr
% arrowhead
n 7410 6748 m 7380 6868 l 7350 6748 l  col0 s
% Polyline
gs  clippath
7373 6968 m 7387 6968 l 7410 7112 l 7380 6992 l 7350 7112 l cp
eoclip
n 7380 6975 m
 7380 7155 l gs col0 s gr gr
% arrowhead
n 7350 7112 m 7380 6992 l 7410 7112 l  col0 s
% Polyline
gs  clippath
8412 4941 m 8424 4947 l 8345 5158 l 8291 5131 l cp
eoclip
n 8325 5130 m
 8415 4950 l gs col0 s gr gr
% arrowhead
45.000 slw
n 8345 5158 m 8372 5037 l 8291 5131 l 8345 5158 l  cp gs 0.00 setgray ef gr  col0 s
% Polyline
7.500 slw
gs  clippath
8643 5499 m 8631 5493 l 8668 5353 l 8647 5475 l 8723 5377 l cp
8997 4671 m 9009 4677 l 8972 4817 l 8993 4695 l 8917 4793 l cp
eoclip
n 9000 4680 m
 8640 5490 l gs col0 s gr gr
% arrowhead
n 8917 4793 m 8993 4695 l 8972 4817 l  col0 s
% arrowhead
n 8723 5377 m 8647 5475 l 8668 5353 l  col0 s
/Times-Bold ff 317.50 scf sf
7965 5670 m
gs 1 -1 sc (y) col0 sh gr
/Times-Bold ff 317.50 scf sf
6660 4410 m
gs 1 -1 sc (z) col0 sh gr
/Times-Bold ff 317.50 scf sf
8865 4545 m
gs 1 -1 sc (r) col0 sh gr
/Times-Roman ff 190.50 scf sf
5625 3780 m
gs 1 -1 sc () col0 sh gr
/Times-Bold ff 317.50 scf sf
6390 5940 m
gs 1 -1 sc (x) col0 sh gr
/Times-Bold ff 317.50 scf sf
8325 5985 m
gs 1 -1 sc (b) col0 sh gr
/Times-Bold ff 317.50 scf sf
8550 6570 m
gs 1 -1 sc (I) col0 sh gr
/Times-Bold ff 317.50 scf sf
7380 6615 m
gs 1 -1 sc (L) col0 sh gr
/Times-Bold ff 317.50 scf sf
8010 5085 m
gs 1 -1 sc (I) col0 sh gr
/Times-Roman ff 190.50 scf sf
5760 3600 m
gs 1 -1 sc () col0 sh gr
/Times-Bold ff 317.50 scf sf
6660 3870 m
gs 1 -1 sc (h   ) col0 sh gr
/Times-Bold ff 317.50 scf sf
8955 5175 m
gs 1 -1 sc (W     ) col0 sh gr
% here ends figure;
pagefooter
showpage
%%Trailer
%EOF
