#FIG 3.2  Produced by xfig version 3.2.7a
Landscape
Center
Metric
A4
100.00
Single
-2
1200 2
2 1 0 1 0 7 50 -1 -1 0.000 0 0 -1 1 0 2
	0 0 1.00 60.00 120.00
	 6660 5670 7920 5670
2 1 0 1 0 7 50 -1 -1 0.000 0 0 -1 1 0 2
	0 0 1.00 60.00 120.00
	 6660 5670 6660 4455
2 1 0 2 0 7 50 -1 -1 0.000 0 0 -1 1 1 2
	0 0 1.00 120.00 240.00
	0 0 1.00 120.00 240.00
	 4860 4005 8460 4005
2 1 0 3 0 7 50 -1 -1 0.000 0 0 -1 0 0 2
	 5040 4680 8550 4680
2 1 0 3 0 7 50 -1 -1 0.000 0 0 -1 0 0 2
	 4680 5490 8190 5490
2 1 0 3 0 7 50 -1 -1 0.000 0 0 -1 0 0 2
	 4680 5490 5040 4680
2 1 0 3 0 7 50 -1 -1 0.000 0 0 -1 0 0 2
	 8173 5483 8533 4673
2 1 0 3 0 7 50 -1 -1 0.000 0 0 -1 0 0 2
	 4672 6926 5032 6116
2 1 0 3 0 7 50 -1 -1 0.000 0 0 -1 0 0 2
	 5040 6120 8550 6120
2 1 0 3 0 7 50 -1 -1 0.000 0 0 -1 0 0 2
	 4680 6930 8190 6930
2 1 0 1 0 7 50 -1 -1 0.000 0 0 -1 1 1 2
	0 0 1.00 60.00 120.00
	0 0 1.00 60.00 120.00
	 8190 5490 8190 6930
2 1 0 1 0 7 50 -1 -1 0.000 0 0 -1 0 1 2
	0 0 1.00 60.00 120.00
	 8550 4680 8775 4590
2 1 0 1 0 7 50 -1 -1 0.000 0 0 -1 1 0 2
	1 1 4.00 60.00 120.00
	 8325 6570 8415 6390
2 1 0 3 0 7 50 -1 -1 0.000 0 0 -1 0 0 3
	 8165 6920 8350 6516 8525 6110
2 1 0 1 0 7 50 -1 -1 0.000 0 0 -1 1 0 2
	0 0 1.00 60.00 120.00
	 6660 5670 6525 6030
2 1 0 1 0 7 50 -1 -1 0.000 0 0 -1 1 0 2
	0 0 1.00 60.00 120.00
	 7380 6705 7380 6885
2 1 0 1 0 7 50 -1 -1 0.000 0 0 -1 0 1 2
	0 0 1.00 60.00 120.00
	 7380 6975 7380 7155
2 1 0 1 0 7 50 -1 -1 0.000 0 0 -1 1 0 2
	1 1 4.00 60.00 120.00
	 8325 5130 8415 4950
2 1 0 1 0 7 50 -1 -1 0.000 0 0 -1 1 1 2
	0 0 1.00 60.00 120.00
	0 0 1.00 60.00 120.00
	 9000 4680 8640 5490
4 0 0 50 -1 2 20 0.0000 4 120 90 7965 5670 y\001
4 0 0 50 -1 2 20 0.0000 4 90 90 6660 4410 z\001
4 0 0 50 -1 2 20 0.0000 4 90 90 8865 4545 r\001
4 0 0 50 -1 0 12 0.0000 4 0 270 5625 3780    \001
4 0 0 50 -1 2 20 0.0000 4 90 90 6390 5940 x\001
4 0 0 50 -1 2 20 0.0000 4 135 90 8325 5985 b\001
4 0 0 50 -1 2 20 0.0000 4 135 90 8550 6570 I\001
4 0 0 50 -1 2 20 0.0000 4 135 90 7380 6615 L\001
4 0 0 50 -1 2 20 0.0000 4 135 90 8010 5085 I\001
4 0 0 50 -1 0 12 0.0000 4 0 270 5760 3600    \001
4 0 0 50 -1 2 20 0.0000 4 135 360 6660 3870 h   \001
4 0 0 50 -1 2 20 0.0000 4 135 540 8955 5175 W     \001
