%!PS-Adobe-3.0
%%Title: PlanarGradiometer.fig
%%Creator: fig2dev Version 3.2.6a
%%CreationDate: 2019-09-04 11:51:03
%%Orientation: Landscape
%%Pages: 1
%%BoundingBox: 0 0 595 842
%%DocumentPaperSizes: a4
%Magnification: 1.0000
%%EndComments
%%BeginSetup
[{
%%BeginFeature: *PageRegion A4
<</PageSize [595 842]>> setpagedevice
%%EndFeature
} stopped cleartomark
%%EndSetup
%%BeginProlog
/$F2psDict 200 dict def
$F2psDict begin
$F2psDict /mtrx matrix put
/col-1 {0 setgray} bind def
/col0 {0.000 0.000 0.000 srgb} bind def
/col7 {1.000 1.000 1.000 srgb} bind def

end

/cp {closepath} bind def
/ef {eofill} bind def
/gr {grestore} bind def
/gs {gsave} bind def
/sa {save} bind def
/rs {restore} bind def
/l {lineto} bind def
/m {moveto} bind def
/rm {rmoveto} bind def
/n {newpath} bind def
/s {stroke} bind def
/sh {show} bind def
/slc {setlinecap} bind def
/slj {setlinejoin} bind def
/slw {setlinewidth} bind def
/srgb {setrgbcolor} bind def
/rot {rotate} bind def
/sc {scale} bind def
/sd {setdash} bind def
/ff {findfont} bind def
/sf {setfont} bind def
/scf {scalefont} bind def
/sw {stringwidth} bind def
/tr {translate} bind def
/tnt {dup dup currentrgbcolor
  4 -2 roll dup 1 exch sub 3 -1 roll mul add
  4 -2 roll dup 1 exch sub 3 -1 roll mul add
  4 -2 roll dup 1 exch sub 3 -1 roll mul add srgb}
  bind def
/shd {dup dup currentrgbcolor 4 -2 roll mul 4 -2 roll mul
  4 -2 roll mul srgb} bind def
/$F2psBegin {$F2psDict begin /$F2psEnteredState save def} def
/$F2psEnd {$F2psEnteredState restore end} def

/pageheader {
save
newpath 0 842 moveto 0 0 lineto 595 0 lineto 595 842 lineto closepath clip newpath
-11.2 0.5 translate
$F2psBegin
10 setmiterlimit
0 slj 0 slc
 0.06299 0.06299 sc
} bind def
/pagefooter {
$F2psEnd
restore
} bind def
%%EndProlog
%%Page: 1 1
%%BeginPageSetup
pageheader
 90 rotate
1 -1 scale
%%EndPageSetup
%
% Fig objects follow
%
% 
% here starts figure with depth 50
% Polyline
0 slj
0 slc
7.500 slw
gs  clippath
7747 5123 m 7747 5137 l 7603 5160 l 7723 5130 l 7603 5100 l cp
eoclip
n 5040 5130 m
 7740 5130 l gs col0 s gr gr

% arrowhead
n 7603 5100 m 7723 5130 l 7603 5160 l  col0 s
% Polyline
15.000 slw
n 6930 5670 m
 5670 4590 l gs col0 s gr 
% Polyline
7.500 slw
gs  clippath
6293 2513 m 6307 2513 l 6330 2657 l 6300 2537 l 6270 2657 l cp
eoclip
n 6300 5130 m
 6300 2520 l gs col0 s gr gr

% arrowhead
n 6270 2657 m 6300 2537 l 6330 2657 l  col0 s
% Polyline
gs  clippath
6293 2513 m 6307 2513 l 6330 2657 l 6300 2537 l 6270 2657 l cp
eoclip
n 6300 7380 m
 6300 2520 l gs col0 s gr gr

% arrowhead
n 6270 2657 m 6300 2537 l 6330 2657 l  col0 s
% Polyline
15.000 slw
gs  clippath
6931 4575 m 6945 4591 l 6789 4752 l 6748 4705 l cp
eoclip
n 5670 5670 m
 6930 4590 l gs col0 s gr gr

% arrowhead
45.000 slw
n 6789 4752 m 6860 4650 l 6748 4705 l 6789 4752 l  cp gs 0.00 setgray ef gr  col0 s
% Polyline
15.000 slw
gs  clippath
7211 2960 m 7211 2981 l 6943 3030 l 7183 2970 l 6943 2910 l cp
5390 2981 m 5390 2960 l 5657 2910 l 5417 2970 l 5657 3030 l cp
eoclip
n 5400 2970 m
 7200 2970 l gs col0 s gr gr

% arrowhead
7.500 slw
n 5657 3030 m 5417 2970 l 5657 2910 l  col0 s
% arrowhead
n 6943 2910 m 7183 2970 l 6943 3030 l  col0 s
% Polyline
gs  clippath
8107 6307 m 8093 6307 l 8039 6028 l 8100 6268 l 8162 6028 l cp
8093 3953 m 8107 3953 l 8162 4232 l 8100 3992 l 8039 4232 l cp
eoclip
n 8100 3960 m
 8100 6300 l gs col0 s gr gr

% arrowhead
15.000 slw
n 8039 4232 m 8100 3992 l 8162 4232 l  col0 s
% arrowhead
n 8162 6028 m 8100 6268 l 8039 6028 l  col0 s
% Polyline
2 slj
n 6930 5670 m 6932 5671 l 6935 5674 l 6940 5679 l 6948 5686 l 6957 5696 l
 6968 5707 l 6980 5719 l 6992 5734 l 7005 5750 l 7018 5769 l
 7033 5792 l 7049 5819 l 7065 5850 l 7078 5878 l 7090 5904 l
 7099 5927 l 7106 5945 l 7111 5959 l 7114 5970 l 7116 5978 l
 7118 5985 l 7119 5992 l 7120 6000 l 7123 6011 l 7127 6025 l
 7132 6043 l 7138 6066 l 7146 6092 l 7155 6120 l 7165 6155 l
 7174 6182 l 7180 6200 l 7184 6209 l 7187 6213 l 7189 6214 l
 7191 6214 l 7192 6218 l 7195 6227 l 7197 6243 l 7199 6268 l
 7200 6300 l 7199 6329 l 7197 6354 l 7195 6374 l 7192 6389 l
 7190 6400 l 7187 6407 l 7185 6413 l 7182 6418 l 7179 6425 l
 7176 6436 l 7172 6451 l 7167 6471 l 7161 6496 l 7155 6525 l
 7148 6557 l 7142 6583 l 7139 6600 l 7138 6611 l 7139 6616 l
 7140 6619 l 7141 6621 l 7141 6626 l 7138 6636 l 7133 6653 l
 7123 6676 l 7110 6705 l 7097 6730 l 7084 6752 l 7073 6769 l
 7065 6781 l 7059 6789 l 7054 6795 l 7050 6799 l 7046 6803 l
 7041 6808 l 7034 6816 l 7024 6827 l 7010 6843 l 6994 6863 l
 6975 6885 l 6953 6910 l 6936 6929 l 6924 6943 l 6918 6951 l
 6916 6954 l 6915 6956 l 6914 6958 l 6911 6962 l 6903 6969 l
 6889 6981 l 6868 6998 l 6840 7020 l 6817 7037 l 6796 7052 l
 6779 7064 l 6765 7074 l 6755 7081 l 6748 7087 l 6743 7091 l
 6739 7095 l 6735 7098 l 6729 7102 l 6721 7107 l 6709 7114 l
 6693 7122 l 6671 7132 l 6645 7143 l 6615 7155 l 6584 7165 l
 6556 7174 l 6532 7180 l 6514 7184 l 6499 7187 l 6488 7188 l
 6480 7189 l 6473 7189 l 6465 7189 l 6457 7189 l 6447 7189 l
 6434 7190 l 6416 7192 l 6395 7194 l 6371 7197 l 6345 7200 l
 6309 7204 l 6285 7206 l 6274 7207 l 6271 7207 l 6274 7208 l
 6276 7207 l 6275 7207 l 6264 7206 l 6243 7204 l 6210 7200 l
 6184 7197 l 6161 7193 l 6142 7191 l 6128 7189 l 6118 7189 l
 6111 7189 l 6105 7189 l 6099 7189 l 6092 7188 l 6081 7186 l
 6065 7182 l 6044 7176 l 6016 7167 l 5985 7155 l 5957 7143 l
 5933 7132 l 5912 7122 l 5896 7114 l 5884 7107 l 5876 7102 l
 5870 7098 l 5865 7095 l 5860 7091 l 5854 7087 l 5847 7081 l
 5836 7074 l 5822 7064 l 5804 7052 l 5783 7037 l 5760 7020 l
 5732 6998 l 5711 6981 l 5697 6969 l 5689 6962 l 5686 6958 l
 5685 6956 l 5684 6954 l 5682 6951 l 5676 6943 l 5664 6929 l
 5647 6910 l 5625 6885 l 5606 6863 l 5590 6843 l 5576 6827 l
 5566 6816 l 5559 6808 l 5554 6803 l 5550 6799 l 5546 6795 l
 5541 6789 l 5535 6781 l 5527 6769 l 5516 6752 l 5503 6730 l
 5490 6705 l 5477 6676 l 5467 6652 l 5462 6635 l 5459 6625 l
 5459 6619 l 5460 6615 l 5461 6611 l 5462 6605 l 5461 6595 l
 5458 6578 l 5452 6554 l 5445 6525 l 5438 6496 l 5431 6473 l
 5426 6457 l 5422 6448 l 5418 6444 l 5415 6442 l 5412 6441 l
 5409 6436 l 5406 6426 l 5403 6407 l 5401 6380 l 5400 6345 l
 5401 6317 l 5402 6290 l 5404 6268 l 5406 6249 l 5409 6234 l
 5411 6223 l 5413 6214 l 5415 6206 l 5417 6198 l 5420 6190 l
 5423 6179 l 5426 6165 l 5430 6147 l 5434 6125 l 5439 6101 l
 5445 6075 l 5453 6039 l 5460 6014 l 5463 6001 l 5464 5996 l
 5464 5997 l 5465 5994 l 5470 5984 l 5478 5965 l 5490 5940 l
 5501 5918 l 5511 5900 l 5519 5888 l 5525 5880 l 5528 5875 l
 5531 5872 l 5534 5870 l 5538 5865 l 5544 5857 l 5553 5845 l
 5565 5827 l 5580 5805 l 5595 5783 l 5608 5763 l 5620 5746 l
 5630 5730 l 5639 5716 l 5648 5704 l 5655 5693 l 5661 5683 l
 5666 5676 l 5669 5672 l
 5670 5670 l gs col0 s gr 
% Polyline
n 6840 4680 m 6842 4679 l 6846 4676 l 6853 4671 l 6863 4664 l 6874 4655 l
 6886 4644 l 6900 4631 l 6916 4616 l 6933 4597 l 6953 4573 l
 6975 4545 l 6992 4522 l 7007 4501 l 7019 4482 l 7029 4467 l
 7036 4455 l 7042 4446 l 7046 4439 l 7050 4433 l 7053 4426 l
 7057 4419 l 7062 4410 l 7069 4398 l 7077 4383 l 7087 4364 l
 7098 4343 l 7110 4320 l 7126 4287 l 7136 4265 l 7140 4253 l
 7141 4249 l 7140 4249 l 7139 4249 l 7138 4245 l 7141 4235 l
 7147 4214 l 7155 4185 l 7162 4159 l 7168 4137 l 7173 4119 l
 7177 4107 l 7179 4098 l 7181 4091 l 7183 4085 l 7185 4076 l
 7188 4064 l 7192 4048 l 7196 4028 l 7200 4005 l 7204 3976 l
 7206 3962 l 7207 3959 l 7208 3964 l 7207 3968 l 7206 3965 l
 7204 3948 l 7200 3915 l 7197 3892 l 7193 3870 l 7190 3851 l
 7188 3837 l 7187 3826 l 7186 3817 l 7185 3810 l 7184 3803 l
 7183 3794 l 7180 3782 l 7177 3765 l 7171 3744 l 7164 3719 l
 7155 3690 l 7145 3662 l 7136 3639 l 7129 3621 l 7123 3608 l
 7119 3600 l 7116 3596 l 7114 3592 l 7111 3589 l 7108 3585 l
 7104 3578 l 7097 3567 l 7089 3552 l 7078 3532 l 7065 3510 l
 7051 3485 l 7039 3466 l 7031 3452 l 7027 3444 l 7025 3441 l
 7024 3439 l 7023 3437 l 7021 3433 l 7015 3426 l 7006 3414 l
 6993 3397 l 6975 3375 l 6956 3353 l 6940 3335 l 6927 3321 l
 6919 3311 l 6912 3305 l 6907 3300 l 6903 3295 l 6896 3289 l
 6888 3281 l 6875 3270 l 6859 3256 l 6840 3240 l 6820 3224 l
 6806 3215 l 6799 3211 l 6797 3211 l 6799 3214 l 6800 3216 l
 6798 3217 l 6790 3214 l 6774 3207 l 6750 3195 l 6730 3185 l
 6713 3176 l 6698 3168 l 6687 3162 l 6680 3157 l 6675 3153 l
 6671 3150 l 6667 3147 l 6661 3143 l 6653 3138 l 6640 3132 l
 6622 3124 l 6598 3115 l 6570 3105 l 6541 3096 l 6516 3089 l
 6495 3083 l 6480 3080 l 6468 3077 l 6460 3076 l 6454 3075 l
 6447 3074 l 6439 3073 l 6429 3072 l 6414 3070 l 6394 3067 l
 6371 3063 l 6345 3060 l 6312 3056 l 6290 3054 l 6278 3053 l
 6274 3053 l 6270 3053 l 6260 3054 l 6239 3056 l 6210 3060 l
 6184 3064 l 6162 3068 l 6146 3071 l 6135 3073 l 6128 3074 l
 6124 3075 l 6119 3076 l 6112 3078 l 6100 3081 l 6083 3087 l
 6059 3095 l 6030 3105 l 6005 3115 l 5983 3124 l 5966 3131 l
 5954 3137 l 5946 3141 l 5940 3144 l 5936 3146 l 5932 3149 l
 5927 3152 l 5919 3156 l 5908 3163 l 5892 3171 l 5872 3182 l
 5850 3195 l 5825 3209 l 5805 3221 l 5791 3230 l 5783 3235 l
 5778 3238 l 5775 3240 l 5772 3242 l 5768 3245 l 5761 3250 l
 5749 3259 l 5734 3271 l 5715 3285 l 5694 3302 l 5680 3314 l
 5672 3319 l 5670 3320 l 5670 3319 l 5670 3318 l 5668 3320 l
 5660 3329 l 5646 3347 l 5625 3375 l 5611 3395 l 5598 3415 l
 5586 3432 l 5577 3447 l 5569 3459 l 5563 3469 l 5558 3477 l
 5554 3484 l 5549 3491 l 5545 3499 l 5539 3509 l 5532 3521 l
 5523 3537 l 5513 3556 l 5502 3577 l 5490 3600 l 5474 3633 l
 5464 3655 l 5460 3667 l 5459 3671 l 5460 3671 l 5461 3671 l
 5462 3675 l 5459 3685 l 5453 3706 l 5445 3735 l 5438 3761 l
 5432 3783 l 5427 3800 l 5423 3812 l 5421 3819 l 5419 3825 l
 5417 3831 l 5415 3838 l 5412 3850 l 5408 3867 l 5404 3889 l
 5400 3915 l 5396 3944 l 5394 3965 l 5393 3977 l 5393 3981 l
 5393 3983 l 5393 3984 l 5393 3988 l 5394 4000 l 5396 4021 l
 5400 4050 l 5404 4076 l 5408 4098 l 5411 4114 l 5413 4125 l
 5414 4132 l 5415 4136 l 5416 4141 l 5418 4148 l 5421 4160 l
 5427 4177 l 5435 4201 l 5445 4230 l 5455 4255 l 5464 4277 l
 5471 4293 l 5476 4305 l 5479 4312 l 5481 4317 l 5483 4320 l
 5484 4323 l 5487 4328 l 5491 4335 l 5497 4347 l 5507 4363 l
 5520 4385 l 5535 4410 l 5551 4435 l 5566 4457 l 5578 4474 l
 5587 4487 l 5593 4496 l 5598 4503 l 5603 4508 l 5607 4512 l
 5612 4518 l 5618 4526 l 5627 4538 l 5639 4552 l 5654 4570 l
 5670 4590 l 5691 4615 l 5708 4634 l 5722 4647 l 5733 4658 l
 5742 4666 l 5749 4672 l 5755 4676 l 5758 4679 l
 5760 4680 l gs col0 s gr 
/Times-Bold ff 317.50 scf sf
6390 2520 m
gs 1 -1 sc (y) col0 sh gr
/Times-Bold ff 317.50 scf sf
7740 5040 m
gs 1 -1 sc (x) col0 sh gr
/Times-Bold ff 317.50 scf sf
6975 4815 m
gs 1 -1 sc (I) col0 sh gr
/Times-Bold ff 317.50 scf sf
6435 2880 m
gs 1 -1 sc (2 R) col0 sh gr
/Times-Bold ff 317.50 scf sf
8235 5175 m
gs 1 -1 sc (b) col0 sh gr
% here ends figure;
pagefooter
showpage
%%Trailer
%EOF
