%!PS-Adobe-3.0 EPSF-3.0
%%Title: Racetrack.fig
%%Creator: fig2dev Version 3.2.7a
%%CreationDate: 2024-03-21 17:25:37
%%BoundingBox: 0 0 204 260
%%Magnification: 1.0000
%%EndComments
%%BeginProlog
/$F2psDict 200 dict def
$F2psDict begin
$F2psDict /mtrx matrix put
/col-1 {0 setgray} bind def
/col0 {0.000 0.000 0.000 srgb} bind def
/col7 {1.000 1.000 1.000 srgb} bind def

end

/cp {closepath} bind def
/ef {eofill} bind def
/gr {grestore} bind def
/gs {gsave} bind def
/sa {save} bind def
/rs {restore} bind def
/l {lineto} bind def
/rl {rlineto} bind def
/m {moveto} bind def
/rm {rmoveto} bind def
/n {newpath} bind def
/s {stroke} bind def
/sh {show} bind def
/slc {setlinecap} bind def
/slj {setlinejoin} bind def
/slw {setlinewidth} bind def
/srgb {setrgbcolor} bind def
/rot {rotate} bind def
/sc {scale} bind def
/sd {setdash} bind def
/ff {findfont} bind def
/sf {setfont} bind def
/scf {scalefont} bind def
/sw {stringwidth} bind def
/tr {translate} bind def
/tnt {dup dup currentrgbcolor
  4 -2 roll dup 1 exch sub 3 -1 roll mul add
  4 -2 roll dup 1 exch sub 3 -1 roll mul add
  4 -2 roll dup 1 exch sub 3 -1 roll mul add srgb}
  bind def
/shd {dup dup currentrgbcolor 4 -2 roll mul 4 -2 roll mul
  4 -2 roll mul srgb} bind def
/$F2psBegin {$F2psDict begin /$F2psEnteredState save def} def
/$F2psEnd {$F2psEnteredState restore end} def

/pageheader {
sa
n 0 260 m 0 0 l 204 0 l 204 260 l cp clip
-322.2 485.7 tr
1 -1 sc
$F2psBegin
10 setmiterlimit
0 slj 0 slc
 0.06299 0.06299 sc
} bind def
/pagefooter {
$F2psEnd
restore
} bind def
%%EndProlog
pageheader
%
% Fig objects follow
%
% 
% here starts figure with depth 50
% Arc
30.000 slw
0 slc
n 6541.1 4741.1 691.7 177.6029 -87.6029 arc
gs col0 s gr
% Arc
n 6778.9 4741.1 691.7 2.3971 -92.3971 arcn
gs col0 s gr
% Arc
n 6517.5 4717.5 849.1 176.4552 -86.4552 arc
gs col0 s gr
% Arc
n 6802.5 4717.5 849.1 3.5448 -93.5448 arcn
gs col0 s gr
% Arc
n 6778.9 6598.9 691.7 -2.3971 92.3971 arc
gs col0 s gr
% Arc
n 6802.5 6622.5 849.1 -3.5448 93.5448 arc
gs col0 s gr
% Arc
n 6541.1 6598.9 691.7 -177.6029 87.6029 arcn
gs col0 s gr
% Arc
n 6517.5 6622.5 849.1 -176.4552 86.4552 arcn
gs col0 s gr
% Polyline
0 slj
7.500 slw
gs  clippath
7927 5663 m 7927 5677 l 7783 5700 l 7903 5670 l 7783 5640 l cp
eoclip
n 6660 5670 m
 7920 5670 l gs col0 s gr gr
% arrowhead
n 7783 5640 m 7903 5670 l 7783 5700 l  col0 s
% Polyline
gs  clippath
6653 4448 m 6667 4448 l 6690 4592 l 6660 4472 l 6630 4592 l cp
eoclip
n 6660 5670 m
 6660 4455 l gs col0 s gr gr
% arrowhead
n 6630 4592 m 6660 4472 l 6690 4592 l  col0 s
% Polyline
gs  clippath
6667 6037 m 6653 6037 l 6630 5893 l 6660 6013 l 6690 5893 l cp
eoclip
n 6660 5670 m
 6660 6030 l gs col0 s gr gr
% arrowhead
n 6690 5893 m 6660 6013 l 6630 5893 l  col0 s
% Polyline
15.000 slw
gs  clippath
5501 6581 m 5480 6581 l 5430 6313 l 5490 6553 l 5550 6313 l cp
5480 4760 m 5501 4760 l 5550 5027 l 5490 4787 l 5430 5027 l cp
eoclip
n 5490 4770 m
 5490 6570 l gs col0 s gr gr
% arrowhead
7.500 slw
n 5430 5027 m 5490 4787 l 5550 5027 l  col0 s
% arrowhead
n 5550 6313 m 5490 6553 l 5430 6313 l  col0 s
% Polyline
30.000 slw
n 7650 4770 m
 7650 6570 l gs col0 s gr % Polyline
n 7470 4770 m
 7470 6570 l gs col0 s gr % Polyline
n 5670 4770 m
 5670 6570 l gs col0 s gr % Polyline
n 5850 4770 m
 5850 6570 l gs col0 s gr % Polyline
7.500 slw
gs  clippath
7477 6293 m 7477 6307 l 7333 6330 l 7453 6300 l 7333 6270 l cp
eoclip
n 7470 6300 m
 7290 6300 l gs col0 s gr gr
% arrowhead
n 7333 6270 m 7453 6300 l 7333 6330 l  col0 s
% Polyline
gs  clippath
7643 6307 m 7643 6293 l 7787 6270 l 7667 6300 l 7787 6330 l cp
eoclip
n 7830 6300 m
 7650 6300 l gs col0 s gr gr
% arrowhead
n 7787 6330 m 7667 6300 l 7787 6270 l  col0 s
% Polyline
30.000 slw
gs  clippath
7542 4977 m 7578 4977 l 7620 5251 l 7500 5251 l cp
eoclip
n 7560 4995 m
 7560 5445 l gs col0 s gr gr
% arrowhead
7.500 slw
n 7620 5251 m 7560 5011 l 7500 5251 l 7620 5251 l  cp gs 0.00 setgray ef gr  col0 s
% Polyline
30.000 slw
n 6750 4050 m
 6570 4050 l gs col0 s gr % Polyline
n 6570 3870 m
 6750 3870 l gs col0 s gr % Polyline
n 6750 7290 m
 6570 7290 l gs col0 s gr % Polyline
n 6570 7470 m
 6750 7470 l gs col0 s gr % Polyline
15.000 slw
gs  clippath
7305 7108 m 7292 7125 l 7052 6997 l 7277 7100 l 7127 6903 l cp
eoclip
n 7290 7110 m
 6840 6750 l gs col0 s gr gr
% arrowhead
7.500 slw
n 7127 6903 m 7277 7100 l 7052 6997 l  col0 s
% Polyline
gs  clippath
6743 7657 m 6743 7643 l 6887 7620 l 6767 7650 l 6887 7680 l cp
eoclip
n 6930 7650 m
 6750 7650 l gs col0 s gr gr
% arrowhead
n 6887 7680 m 6767 7650 l 6887 7620 l  col0 s
% Polyline
gs  clippath
6577 7643 m 6577 7657 l 6433 7680 l 6553 7650 l 6433 7620 l cp
eoclip
n 6570 7650 m
 6390 7650 l gs col0 s gr gr
% arrowhead
n 6433 7620 m 6553 7650 l 6433 7680 l  col0 s
/Times-Bold ff 317.50 scf sf
7965 5670 m
gs 1 -1 sc (y) col0 sh gr
/Times-Bold ff 317.50 scf sf
6660 4410 m
gs 1 -1 sc (z) col0 sh gr
/Times-Roman ff 190.50 scf sf
5760 3600 m
gs 1 -1 sc () col0 sh gr
/Times-Bold ff 317.50 scf sf
6300 5985 m
gs 1 -1 sc (x) col0 sh gr
/Times-Bold ff 317.50 scf sf
5130 5760 m
gs 1 -1 sc (h) col0 sh gr
/Times-Roman ff 190.50 scf sf
5625 3780 m
gs 1 -1 sc () col0 sh gr
/Times-Bold ff 317.50 scf sf
7785 5310 m
gs 1 -1 sc (I) col0 sh gr
/Times-Bold ff 317.50 scf sf
6660 6705 m
gs 1 -1 sc (R) col0 sh gr
/Times-Bold ff 317.50 scf sf
7065 7695 m
gs 1 -1 sc (e) col0 sh gr
/Times-Bold ff 317.50 scf sf
7965 6345 m
gs 1 -1 sc (w   ) col0 sh gr
% here ends figure;
pagefooter
showpage
%%Trailer
%EOF
