%!PS-Adobe-3.0 EPSF-3.0
%%Title: RacetrackCylinder.fig
%%Creator: fig2dev Version 3.2.7a
%%CreationDate: 2024-03-22 16:23:44
%%BoundingBox: 0 0 408 350
%%Magnification: 1.0000
%%EndComments
%%BeginProlog
/$F2psDict 200 dict def
$F2psDict begin
$F2psDict /mtrx matrix put
/col-1 {0 setgray} bind def
/col0 {0.000 0.000 0.000 srgb} bind def
/col7 {1.000 1.000 1.000 srgb} bind def

end

/cp {closepath} bind def
/ef {eofill} bind def
/gr {grestore} bind def
/gs {gsave} bind def
/sa {save} bind def
/rs {restore} bind def
/l {lineto} bind def
/rl {rlineto} bind def
/m {moveto} bind def
/rm {rmoveto} bind def
/n {newpath} bind def
/s {stroke} bind def
/sh {show} bind def
/slc {setlinecap} bind def
/slj {setlinejoin} bind def
/slw {setlinewidth} bind def
/srgb {setrgbcolor} bind def
/rot {rotate} bind def
/sc {scale} bind def
/sd {setdash} bind def
/ff {findfont} bind def
/sf {setfont} bind def
/scf {scalefont} bind def
/sw {stringwidth} bind def
/tr {translate} bind def
/tnt {dup dup currentrgbcolor
  4 -2 roll dup 1 exch sub 3 -1 roll mul add
  4 -2 roll dup 1 exch sub 3 -1 roll mul add
  4 -2 roll dup 1 exch sub 3 -1 roll mul add srgb}
  bind def
/shd {dup dup currentrgbcolor 4 -2 roll mul 4 -2 roll mul
  4 -2 roll mul srgb} bind def
/$F2psBegin {$F2psDict begin /$F2psEnteredState save def} def
/$F2psEnd {$F2psEnteredState restore end} def

/pageheader {
sa
n 0 350 m 0 0 l 408 0 l 408 350 l cp clip
-344.9 541.8 tr
1 -1 sc
$F2psBegin
10 setmiterlimit
0 slj 0 slc
 0.06299 0.06299 sc
} bind def
/pagefooter {
$F2psEnd
restore
} bind def
%%EndProlog
pageheader
%
% Fig objects follow
%
% 
% here starts figure with depth 50
% Arc
15.000 slw
0 slc
n 6502.5 4972.5 383.2 -176.6335 -93.3665 arc
gs col0 s gr
% Arc
n 6817.5 4972.5 383.2 -3.3665 -86.6335 arcn
gs col0 s gr
% Arc
n 6502.5 6367.5 383.2 176.6335 93.3665 arcn
gs col0 s gr
% Arc
n 6817.5 6367.5 383.2 3.3665 86.6335 arc
gs col0 s gr
% Arc
7.500 slw
n 6660.0 8550.0 810.0 180.0000 0.0000 arc
gs col0 s gr
% Arc
n 6660.0 8460.0 900.0 -126.8699 -53.1301 arc
gs col0 s gr
% Arc
n 6525.0 6345.0 318.2 171.8699 98.1301 arcn
gs col0 s gr
% Arc
n 6525.0 4995.0 318.2 -171.8699 -98.1301 arc
gs col0 s gr
% Arc
n 6795.0 4995.0 318.2 -8.1301 -81.8699 arcn
gs col0 s gr
% Arc
n 6795.0 6345.0 318.2 8.1301 81.8699 arc
gs col0 s gr
% Polyline
0 slj
gs  clippath
7927 5663 m 7927 5677 l 7783 5700 l 7903 5670 l 7783 5640 l cp
eoclip
n 6660 5670 m
 7920 5670 l gs col0 s gr gr
% arrowhead
n 7783 5640 m 7903 5670 l 7783 5700 l  col0 s
% Polyline
gs  clippath
6667 6037 m 6653 6037 l 6630 5893 l 6660 6013 l 6690 5893 l cp
eoclip
n 6660 5670 m
 6660 6030 l gs col0 s gr gr
% arrowhead
n 6690 5893 m 6660 6013 l 6630 5893 l  col0 s
% Polyline
15.000 slw
gs  clippath
6029 4020 m 6015 4004 l 6114 3893 l 6043 3994 l 6153 3938 l cp
eoclip
n 6030 4005 m
 6723 3405 l gs col0 s gr gr
% arrowhead
7.500 slw
n 6153 3938 m 6043 3994 l 6114 3893 l  col0 s
% Polyline
n 7470 3870 m
 7470 7096 l gs col0 s gr % Polyline
n 5850 3870 m
 5850 7096 l gs col0 s gr % Polyline
15.000 slw
n 6480 6660 m
 6840 6660 l gs col0 s gr % Polyline
n 6480 4680 m
 6840 4680 l gs col0 s gr % Polyline
n 7200 6390 m
 7200 4950 l gs col0 s gr % Polyline
n 6480 6750 m
 6840 6750 l gs col0 s gr % Polyline
n 6480 4590 m
 6840 4590 l gs col0 s gr % Polyline
7.500 slw
gs  clippath
6653 4403 m 6667 4403 l 6690 4547 l 6660 4427 l 6630 4547 l cp
eoclip
n 6660 5670 m
 6660 4410 l gs col0 s gr gr
% arrowhead
n 6630 4547 m 6660 4427 l 6690 4547 l  col0 s
% Polyline
gs  clippath
6984 6571 m 6974 6579 l 6866 6482 l 6965 6557 l 6913 6445 l cp
eoclip
n 6975 6570 m
 6795 6345 l gs col0 s gr gr
% arrowhead
n 6913 6445 m 6965 6557 l 6866 6482 l  col0 s
% Polyline
gs  clippath
7117 6023 m 7117 6037 l 6973 6060 l 7093 6030 l 6973 6000 l cp
eoclip
n 6930 6030 m
 7110 6030 l gs col0 s gr gr
% arrowhead
n 6973 6000 m 7093 6030 l 6973 6060 l  col0 s
% Polyline
gs  clippath
7193 6037 m 7193 6023 l 7337 6000 l 7217 6030 l 7337 6060 l cp
eoclip
n 7200 6030 m
 7380 6030 l gs col0 s gr gr
% arrowhead
n 7337 6060 m 7217 6030 l 7337 6000 l  col0 s
% Polyline
15.000 slw
gs  clippath
5930 4940 m 5951 4940 l 5970 5087 l 5940 4967 l 5910 5087 l cp
5951 6401 m 5930 6401 l 5910 6253 l 5940 6373 l 5970 6253 l cp
eoclip
n 5940 6390 m
 5940 4950 l gs col0 s gr gr
% arrowhead
7.500 slw
n 5970 6253 m 5940 6373 l 5910 6253 l  col0 s
% arrowhead
n 5910 5087 m 5940 4967 l 5970 5087 l  col0 s
% Polyline
15.000 slw
gs  clippath
7145 5075 m 7166 5075 l 7185 5221 l 7125 5221 l cp
eoclip
n 7155 5085 m
 7155 5445 l gs col0 s gr gr
% arrowhead
7.500 slw
n 7185 5221 m 7155 5101 l 7125 5221 l 7185 5221 l  cp gs 0.00 setgray ef gr  col0 s
% Polyline
gs  clippath
6577 6923 m 6577 6937 l 6433 6960 l 6553 6930 l 6433 6900 l cp
eoclip
n 6390 6930 m
 6570 6930 l gs col0 s gr gr
% arrowhead
n 6433 6900 m 6553 6930 l 6433 6960 l  col0 s
% Polyline
gs  clippath
6743 6937 m 6743 6923 l 6887 6900 l 6767 6930 l 6887 6960 l cp
eoclip
n 6750 6930 m
 6930 6930 l gs col0 s gr gr
% arrowhead
n 6887 6960 m 6767 6930 l 6887 6900 l  col0 s
% Polyline
n 7110 7875 m
 7200 7740 l gs col0 s gr % Polyline
n 6210 7875 m
 6120 7740 l gs col0 s gr % Polyline
n 6210 6390 m
 6210 4950 l gs col0 s gr % Polyline
n 7110 6390 m
 7110 4950 l gs col0 s gr % Polyline
15.000 slw
n 6120 6390 m
 6120 4950 l gs col0 s gr % Polyline
7.500 slw
n 7110 7695 m
 7020 7830 l gs col0 s gr % Polyline
n 11921 5400 m 11929 5400 l gs col0 s gr
% Polyline
n 6210 7695 m
 6300 7830 l gs col0 s gr % Polyline
 [60] 0 sd
n 6660 8550 m
 7020 7830 l gs col0 s gr  [] 0 sd
% Polyline
gs  clippath
7157 7704 m 7146 7697 l 7206 7565 l 7164 7681 l 7256 7598 l cp
eoclip
n 7155 7695 m
 7245 7560 l gs col0 s gr gr
% arrowhead
n 7256 7598 m 7164 7681 l 7206 7565 l  col0 s
% Polyline
gs  clippath
7053 7859 m 7064 7866 l 7004 7998 l 7046 7882 l 6954 7965 l cp
eoclip
n 6965 8003 m
 7055 7868 l gs col0 s gr gr
% arrowhead
n 6954 7965 m 7046 7882 l 7004 7998 l  col0 s
% Polyline
gs  clippath
7088 7762 m 7081 7773 l 6949 7713 l 7065 7755 l 6982 7663 l cp
eoclip
n 7079 7764 m
 6944 7674 l gs col0 s gr gr
% arrowhead
n 6982 7663 m 7065 7755 l 6949 7713 l  col0 s
% Polyline
gs  clippath
7184 7842 m 7191 7831 l 7323 7891 l 7207 7849 l 7290 7941 l cp
eoclip
n 7328 7930 m
 7193 7840 l gs col0 s gr gr
% arrowhead
n 7290 7941 m 7207 7849 l 7323 7891 l  col0 s
% Polyline
gs  clippath
7927 8543 m 7927 8557 l 7783 8580 l 7903 8550 l 7783 8520 l cp
eoclip
n 6660 8550 m
 7920 8550 l gs col0 s gr gr
% arrowhead
n 7783 8520 m 7903 8550 l 7783 8580 l  col0 s
% Polyline
gs  clippath
6653 7418 m 6667 7418 l 6690 7562 l 6660 7442 l 6630 7562 l cp
eoclip
n 6660 8550 m
 6660 7425 l gs col0 s gr gr
% arrowhead
n 6630 7562 m 6660 7442 l 6690 7562 l  col0 s
% Polyline
 [60] 0 sd
n 6660 8550 m
 6300 7830 l gs col0 s gr  [] 0 sd
% Polyline
2 slj
n 5850 3870 m 5850 3871 l 5851 3879 l 5853 3891 l 5855 3902 l 5859 3913 l
 5865 3923 l 5870 3929 l 5875 3936 l 5882 3944 l 5889 3952 l
 5897 3960 l 5906 3968 l 5914 3976 l 5923 3984 l 5932 3991 l
 5940 3998 l 5948 4004 l 5957 4009 l 5966 4015 l 5976 4021 l
 5986 4026 l 5996 4032 l 6007 4037 l 6017 4041 l 6027 4046 l
 6038 4050 l 6046 4053 l 6056 4057 l 6066 4061 l 6077 4065 l
 6088 4068 l 6101 4073 l 6113 4077 l 6127 4080 l 6140 4084 l
 6153 4088 l 6166 4092 l 6180 4095 l 6194 4098 l 6209 4102 l
 6225 4106 l 6242 4109 l 6259 4113 l 6276 4116 l 6294 4120 l
 6311 4123 l 6327 4126 l 6341 4128 l 6355 4131 l 6368 4133 l
 6381 4134 l 6395 4136 l 6408 4137 l 6421 4138 l 6434 4139 l
 6447 4140 l 6459 4141 l 6471 4141 l 6484 4142 l 6496 4142 l
 6507 4143 l 6518 4144 l 6531 4144 l 6545 4145 l 6560 4146 l
 6576 4147 l 6592 4147 l 6608 4148 l 6624 4149 l 6640 4149 l
 6655 4149 l 6671 4149 l 6684 4149 l 6698 4149 l 6713 4149 l
 6728 4148 l 6744 4148 l 6760 4147 l 6777 4146 l 6794 4144 l
 6811 4143 l 6828 4142 l 6845 4140 l 6861 4138 l 6877 4137 l
 6893 4135 l 6910 4133 l 6926 4131 l 6944 4128 l 6962 4126 l
 6980 4123 l 6999 4120 l 7018 4117 l 7037 4114 l 7055 4110 l
 7072 4107 l 7089 4104 l 7104 4101 l 7119 4098 l 7133 4095 l
 7148 4092 l 7162 4088 l 7177 4084 l 7191 4080 l 7205 4077 l
 7218 4072 l 7231 4068 l 7243 4065 l 7254 4061 l 7264 4057 l
 7274 4053 l 7283 4050 l 7293 4046 l 7303 4041 l 7313 4037 l
 7324 4032 l 7334 4026 l 7344 4021 l 7354 4015 l 7363 4009 l
 7372 4004 l 7380 3998 l 7388 3991 l 7397 3984 l 7406 3976 l
 7414 3968 l 7423 3960 l 7431 3952 l 7438 3944 l 7445 3936 l
 7450 3929 l 7455 3923 l 7461 3913 l 7465 3902 l 7467 3891 l
 7469 3879 l 7470 3871 l
 7470 3870 l gs col0 s gr % Polyline
n 5845 7096 m 5845 7097 l 5846 7105 l 5848 7117 l 5850 7128 l 5854 7139 l
 5860 7149 l 5865 7155 l 5870 7162 l 5877 7170 l 5884 7178 l
 5892 7186 l 5901 7194 l 5909 7202 l 5918 7210 l 5927 7217 l
 5935 7224 l 5943 7230 l 5952 7235 l 5961 7241 l 5971 7247 l
 5981 7252 l 5991 7258 l 6002 7263 l 6012 7267 l 6022 7272 l
 6033 7276 l 6041 7279 l 6051 7283 l 6061 7287 l 6072 7291 l
 6083 7294 l 6096 7299 l 6108 7303 l 6122 7306 l 6135 7310 l
 6148 7314 l 6161 7318 l 6175 7321 l 6189 7324 l 6204 7328 l
 6220 7332 l 6237 7335 l 6254 7339 l 6271 7342 l 6289 7346 l
 6306 7349 l 6322 7352 l 6336 7354 l 6350 7357 l 6363 7359 l
 6376 7360 l 6390 7362 l 6403 7363 l 6416 7364 l 6429 7365 l
 6442 7366 l 6454 7367 l 6466 7367 l 6479 7368 l 6491 7368 l
 6502 7369 l 6513 7370 l 6526 7370 l 6540 7371 l 6555 7372 l
 6571 7373 l 6587 7373 l 6603 7374 l 6619 7375 l 6635 7375 l
 6650 7375 l 6666 7375 l 6679 7375 l 6693 7375 l 6708 7375 l
 6723 7374 l 6739 7374 l 6755 7373 l 6772 7372 l 6789 7370 l
 6806 7369 l 6823 7368 l 6840 7366 l 6856 7364 l 6872 7363 l
 6888 7361 l 6905 7359 l 6921 7357 l 6939 7354 l 6957 7352 l
 6975 7349 l 6994 7346 l 7013 7343 l 7032 7340 l 7050 7336 l
 7067 7333 l 7084 7330 l 7099 7327 l 7114 7324 l 7128 7321 l
 7143 7318 l 7157 7314 l 7172 7310 l 7186 7306 l 7200 7303 l
 7213 7298 l 7226 7294 l 7238 7291 l 7249 7287 l 7259 7283 l
 7269 7279 l 7278 7276 l 7288 7272 l 7298 7267 l 7308 7263 l
 7319 7258 l 7329 7252 l 7339 7247 l 7349 7241 l 7358 7235 l
 7367 7230 l 7375 7224 l 7383 7217 l 7392 7210 l 7401 7202 l
 7409 7194 l 7418 7186 l 7426 7178 l 7433 7170 l 7440 7162 l
 7445 7155 l 7450 7149 l 7456 7139 l 7460 7128 l 7462 7117 l
 7464 7105 l 7465 7097 l
 7465 7096 l gs col0 s gr /Times-Bold ff 317.50 scf sf
6885 3420 m
gs 1 -1 sc (R2) col0 sh gr
/Times-Bold ff 317.50 scf sf
6570 4365 m
gs 1 -1 sc (z) col0 sh gr
/Times-Bold ff 317.50 scf sf
6345 6030 m
gs 1 -1 sc (x) col0 sh gr
/Times-Bold ff 317.50 scf sf
6480 6480 m
gs 1 -1 sc (R) col0 sh gr
/Times-Bold ff 317.50 scf sf
5490 5850 m
gs 1 -1 sc (h) col0 sh gr
/Times-Bold ff 317.50 scf sf
7290 5400 m
gs 1 -1 sc (I) col0 sh gr
/Times-Bold ff 317.50 scf sf
7020 7020 m
gs 1 -1 sc (e) col0 sh gr
/Times-Bold ff 317.50 scf sf
7965 5670 m
gs 1 -1 sc (y    ) col0 sh gr
/Times-Roman ff 190.50 scf sf
6570 3060 m
gs 1 -1 sc () col0 sh gr
/Times-Bold ff 317.50 scf sf
7335 7470 m
gs 1 -1 sc (w) col0 sh gr
/Times-Bold ff 317.50 scf sf
7425 7965 m
gs 1 -1 sc (t) col0 sh gr
/Times-Bold ff 317.50 scf sf
7605 6120 m
gs 1 -1 sc (t) col0 sh gr
/Times-Bold ff 317.50 scf sf
8010 8550 m
gs 1 -1 sc (y    ) col0 sh gr
/Times-Bold ff 317.50 scf sf
6435 7515 m
gs 1 -1 sc (x) col0 sh gr
/Times-Bold ff 317.50 scf sf
6165 8370 m
gs 1 -1 sc (R2) col0 sh gr
% here ends figure;
pagefooter
showpage
%%Trailer
%EOF
