%!PS-Adobe-3.0
%%Title: Ring.fig
%%Creator: fig2dev Version 3.2.6a
%%CreationDate: 2019-09-03 14:42:21
%%Orientation: Landscape
%%Pages: 1
%%BoundingBox: 0 0 595 842
%%DocumentPaperSizes: a4
%Magnification: 1.0000
%%EndComments
%%BeginSetup
[{
%%BeginFeature: *PageRegion A4
<</PageSize [595 842]>> setpagedevice
%%EndFeature
} stopped cleartomark
%%EndSetup
%%BeginProlog
/$F2psDict 200 dict def
$F2psDict begin
$F2psDict /mtrx matrix put
/col-1 {0 setgray} bind def
/col0 {0.000 0.000 0.000 srgb} bind def
/col7 {1.000 1.000 1.000 srgb} bind def

end

/cp {closepath} bind def
/ef {eofill} bind def
/gr {grestore} bind def
/gs {gsave} bind def
/sa {save} bind def
/rs {restore} bind def
/l {lineto} bind def
/m {moveto} bind def
/rm {rmoveto} bind def
/n {newpath} bind def
/s {stroke} bind def
/sh {show} bind def
/slc {setlinecap} bind def
/slj {setlinejoin} bind def
/slw {setlinewidth} bind def
/srgb {setrgbcolor} bind def
/rot {rotate} bind def
/sc {scale} bind def
/sd {setdash} bind def
/ff {findfont} bind def
/sf {setfont} bind def
/scf {scalefont} bind def
/sw {stringwidth} bind def
/tr {translate} bind def
/tnt {dup dup currentrgbcolor
  4 -2 roll dup 1 exch sub 3 -1 roll mul add
  4 -2 roll dup 1 exch sub 3 -1 roll mul add
  4 -2 roll dup 1 exch sub 3 -1 roll mul add srgb}
  bind def
/shd {dup dup currentrgbcolor 4 -2 roll mul 4 -2 roll mul
  4 -2 roll mul srgb} bind def
/$F2psBegin {$F2psDict begin /$F2psEnteredState save def} def
/$F2psEnd {$F2psEnteredState restore end} def

/pageheader {
save
newpath 0 842 moveto 0 0 lineto 595 0 lineto 595 842 lineto closepath clip newpath
-28.6 2.0 translate
$F2psBegin
10 setmiterlimit
0 slj 0 slc
 0.06299 0.06299 sc
} bind def
/pagefooter {
$F2psEnd
restore
} bind def
%%EndProlog
%%Page: 1 1
%%BeginPageSetup
pageheader
 90 rotate
1 -1 scale
%%EndPageSetup
%
% Fig objects follow
%
% 
% here starts figure with depth 50
% Polyline
0 slj
0 slc
7.500 slw
gs  clippath
7927 5663 m 7927 5677 l 7783 5700 l 7903 5670 l 7783 5640 l cp
eoclip
n 6660 5670 m
 7920 5670 l gs col0 s gr gr

% arrowhead
n 7783 5640 m 7903 5670 l 7783 5700 l  col0 s
% Polyline
gs  clippath
6653 4448 m 6667 4448 l 6690 4592 l 6660 4472 l 6630 4592 l cp
eoclip
n 6660 5670 m
 6660 4455 l gs col0 s gr gr

% arrowhead
n 6630 4592 m 6660 4472 l 6690 4592 l  col0 s
% Polyline
30.000 slw
gs  clippath
8153 6051 m 8169 6083 l 7943 6243 l 7889 6136 l cp
eoclip
n 7965 6165 m
 8145 6075 l gs col0 s gr gr

% arrowhead
7.500 slw
n 7943 6243 m 8131 6082 l 7889 6136 l 7943 6243 l  cp gs 0.00 setgray ef gr  col0 s
% Polyline
gs  clippath
6667 6037 m 6653 6037 l 6630 5893 l 6660 6013 l 6690 5893 l cp
eoclip
n 6660 5670 m
 6660 6030 l gs col0 s gr gr

% arrowhead
n 6690 5893 m 6660 6013 l 6630 5893 l  col0 s
% Polyline
n 7286 6390 m 7294 6390 l gs col0 s gr
% Polyline
15.000 slw
n 7283 6390 m 7298 6390 l gs col0 s gr
% Polyline
7.500 slw
 [60] 0 sd
n 6660 5670 m
 7290 6390 l gs col0 s gr  [] 0 sd
% Polyline
 [60] 0 sd
n 6660 5670 m
 5985 6390 l gs col0 s gr  [] 0 sd
% Polyline
15.000 slw
gs  clippath
8471 3995 m 8471 4016 l 8203 4065 l 8443 4005 l 8203 3945 l cp
4850 4016 m 4850 3995 l 5117 3945 l 4877 4005 l 5117 4065 l cp
eoclip
n 4860 4005 m
 8460 4005 l gs col0 s gr gr

% arrowhead
7.500 slw
n 5117 4065 m 4877 4005 l 5117 3945 l  col0 s
% arrowhead
n 8203 3945 m 8443 4005 l 8203 4065 l  col0 s
% Polyline
2 slj
30.000 slw
n 7287 6367 m 7290 6366 l 7297 6365 l 7308 6362 l 7326 6357 l 7349 6351 l
 7377 6344 l 7409 6336 l 7444 6327 l 7479 6318 l 7513 6309 l
 7547 6301 l 7578 6293 l 7608 6285 l 7635 6278 l 7660 6271 l
 7683 6265 l 7704 6260 l 7723 6254 l 7741 6249 l 7758 6244 l
 7775 6240 l 7796 6233 l 7817 6227 l 7837 6220 l 7857 6214 l
 7876 6207 l 7895 6201 l 7914 6194 l 7932 6187 l 7950 6180 l
 7967 6173 l 7983 6167 l 7998 6160 l 8012 6154 l 8026 6147 l
 8039 6141 l 8052 6135 l 8067 6127 l 8082 6119 l 8097 6111 l
 8113 6102 l 8129 6093 l 8145 6084 l 8161 6074 l 8177 6065 l
 8192 6056 l 8207 6047 l 8220 6038 l 8232 6030 l 8244 6022 l
 8255 6015 l 8266 6006 l 8277 5997 l 8288 5989 l 8299 5980 l
 8309 5970 l 8319 5961 l 8328 5951 l 8337 5941 l 8345 5932 l
 8353 5922 l 8360 5912 l 8367 5902 l 8374 5891 l 8381 5880 l
 8388 5868 l 8395 5855 l 8403 5841 l 8410 5827 l 8417 5813 l
 8423 5799 l 8429 5786 l 8434 5774 l 8438 5763 l 8442 5752 l
 8446 5740 l 8449 5728 l 8451 5716 l 8453 5705 l 8454 5693 l
 8454 5682 l 8454 5671 l 8453 5660 l 8451 5650 l 8450 5640 l
 8447 5629 l 8444 5618 l 8441 5605 l 8436 5592 l 8431 5578 l
 8426 5565 l 8419 5551 l 8412 5537 l 8405 5524 l 8397 5512 l
 8390 5502 l 8382 5491 l 8373 5480 l 8364 5469 l 8353 5457 l
 8342 5446 l 8331 5434 l 8320 5423 l 8309 5412 l 8298 5403 l
 8287 5393 l 8277 5385 l 8267 5376 l 8256 5368 l 8245 5359 l
 8233 5350 l 8221 5342 l 8208 5333 l 8196 5325 l 8183 5316 l
 8171 5309 l 8158 5301 l 8146 5294 l 8135 5287 l 8124 5281 l
 8113 5275 l 8102 5269 l 8089 5262 l 8077 5256 l 8063 5249 l
 8049 5242 l 8034 5235 l 8020 5228 l 8005 5222 l 7991 5215 l
 7976 5209 l 7962 5203 l 7947 5197 l 7932 5191 l 7916 5185 l
 7900 5179 l 7883 5173 l 7865 5166 l 7846 5160 l 7827 5153 l
 7808 5147 l 7789 5140 l 7771 5135 l 7754 5129 l 7738 5124 l
 7722 5119 l 7707 5115 l 7692 5110 l 7678 5106 l 7663 5102 l
 7648 5098 l 7633 5094 l 7618 5089 l 7603 5086 l 7588 5082 l
 7573 5078 l 7559 5075 l 7545 5071 l 7531 5068 l 7518 5065 l
 7505 5062 l 7493 5059 l 7481 5057 l 7468 5054 l 7455 5051 l
 7440 5048 l 7425 5046 l 7410 5043 l 7393 5040 l 7376 5036 l
 7359 5033 l 7341 5031 l 7323 5028 l 7305 5025 l 7287 5022 l
 7269 5020 l 7250 5017 l 7232 5015 l 7214 5012 l 7194 5010 l
 7174 5008 l 7153 5005 l 7131 5003 l 7108 5000 l 7085 4998 l
 7061 4996 l 7037 4993 l 7014 4991 l 6990 4989 l 6968 4987 l
 6946 4985 l 6925 4984 l 6905 4982 l 6886 4981 l 6867 4980 l
 6849 4978 l 6831 4977 l 6813 4977 l 6795 4976 l 6777 4975 l
 6758 4975 l 6739 4974 l 6720 4974 l 6701 4974 l 6682 4974 l
 6662 4974 l 6643 4975 l 6624 4975 l 6605 4976 l 6586 4977 l
 6568 4977 l 6549 4978 l 6530 4980 l 6512 4981 l 6493 4982 l
 6474 4983 l 6454 4985 l 6433 4986 l 6411 4988 l 6388 4990 l
 6364 4992 l 6340 4994 l 6315 4997 l 6290 4999 l 6266 5002 l
 6241 5004 l 6216 5007 l 6192 5010 l 6169 5013 l 6146 5016 l
 6123 5018 l 6101 5021 l 6080 5025 l 6058 5028 l 6036 5031 l
 6014 5034 l 5992 5038 l 5969 5042 l 5946 5046 l 5923 5050 l
 5899 5054 l 5876 5059 l 5852 5063 l 5829 5068 l 5806 5072 l
 5784 5077 l 5763 5081 l 5743 5086 l 5723 5090 l 5704 5094 l
 5686 5099 l 5669 5103 l 5652 5107 l 5632 5112 l 5612 5117 l
 5592 5123 l 5571 5129 l 5551 5134 l 5531 5140 l 5511 5147 l
 5491 5153 l 5472 5160 l 5453 5166 l 5434 5173 l 5417 5179 l
 5400 5185 l 5383 5192 l 5368 5198 l 5352 5205 l 5336 5211 l
 5321 5218 l 5305 5225 l 5288 5232 l 5272 5240 l 5255 5248 l
 5238 5256 l 5221 5265 l 5205 5273 l 5189 5281 l 5174 5289 l
 5160 5297 l 5146 5304 l 5134 5311 l 5123 5318 l 5112 5325 l
 5096 5335 l 5081 5345 l 5067 5355 l 5054 5365 l 5042 5375 l
 5031 5384 l 5022 5393 l 5013 5401 l 5006 5408 l 5000 5415 l
 4992 5422 l 4985 5430 l 4977 5438 l 4970 5447 l 4962 5456 l
 4954 5466 l 4947 5477 l 4940 5490 l 4934 5499 l 4929 5509 l
 4922 5520 l 4916 5532 l 4910 5545 l 4903 5558 l 4897 5572 l
 4891 5585 l 4885 5598 l 4880 5610 l 4876 5621 l 4872 5632 l
 4868 5644 l 4865 5656 l 4863 5668 l 4861 5679 l 4860 5691 l
 4860 5702 l 4860 5713 l 4861 5724 l 4863 5734 l 4865 5745 l
 4867 5755 l 4870 5766 l 4873 5779 l 4878 5792 l 4883 5806 l
 4888 5819 l 4895 5833 l 4902 5847 l 4909 5860 l 4917 5872 l
 4924 5882 l 4932 5893 l 4941 5904 l 4950 5915 l 4961 5927 l
 4972 5938 l 4983 5950 l 4994 5961 l 5005 5972 l 5016 5981 l
 5027 5991 l 5037 6000 l 5047 6008 l 5058 6016 l 5069 6025 l
 5081 6034 l 5093 6042 l 5106 6051 l 5118 6059 l 5131 6068 l
 5143 6075 l 5156 6083 l 5168 6090 l 5180 6097 l 5192 6104 l
 5205 6111 l 5218 6118 l 5232 6126 l 5247 6133 l 5262 6141 l
 5277 6148 l 5292 6156 l 5306 6162 l 5319 6168 l 5332 6174 l
 5345 6180 l 5356 6185 l 5369 6189 l 5381 6194 l 5394 6199 l
 5408 6204 l 5423 6210 l 5438 6215 l 5453 6220 l 5468 6225 l
 5484 6230 l 5500 6234 l 5517 6240 l 5530 6243 l 5544 6248 l
 5559 6252 l 5575 6257 l 5592 6262 l 5610 6267 l 5628 6272 l
 5647 6277 l 5665 6282 l 5684 6287 l 5703 6292 l 5721 6297 l
 5738 6302 l 5755 6306 l 5771 6311 l 5787 6315 l 5805 6319 l
 5822 6323 l 5840 6327 l 5859 6332 l 5880 6336 l 5902 6341 l
 5926 6346 l 5951 6351 l 5975 6356 l 5997 6361 l 6012 6364 l
 6022 6366 l 6026 6367 l
 6027 6367 l gs col0 s gr 
/Times-Bold ff 317.50 scf sf
7965 5670 m
gs 1 -1 sc (y) col0 sh gr
/Times-Bold ff 317.50 scf sf
6660 4410 m
gs 1 -1 sc (z) col0 sh gr
/Times-Bold ff 317.50 scf sf
6660 6210 m
gs 1 -1 sc (x) col0 sh gr
/Times-Bold ff 317.50 scf sf
8055 6525 m
gs 1 -1 sc (I) col0 sh gr
/Times-Roman ff 190.50 scf sf
5850 6615 m
gs 1 -1 sc (phi1) col0 sh gr
/Times-Roman ff 190.50 scf sf
7290 6615 m
gs 1 -1 sc (phi0) col0 sh gr
/Times-Bold ff 317.50 scf sf
6525 3825 m
gs 1 -1 sc (2 R) col0 sh gr
% here ends figure;
pagefooter
showpage
%%Trailer
%EOF
