%!PS-Adobe-3.0 EPSF-3.0
%%Title: RingCylinder.fig
%%Creator: fig2dev Version 3.2.7a
%%CreationDate: 2024-03-14 15:29:33
%%BoundingBox: 0 0 141 213
%%Magnification: 1.0000
%%EndComments
%%BeginProlog
/$F2psDict 200 dict def
$F2psDict begin
$F2psDict /mtrx matrix put
/col-1 {0 setgray} bind def
/col0 {0.000 0.000 0.000 srgb} bind def
/col7 {1.000 1.000 1.000 srgb} bind def

end

/cp {closepath} bind def
/ef {eofill} bind def
/gr {grestore} bind def
/gs {gsave} bind def
/sa {save} bind def
/rs {restore} bind def
/l {lineto} bind def
/rl {rlineto} bind def
/m {moveto} bind def
/rm {rmoveto} bind def
/n {newpath} bind def
/s {stroke} bind def
/sh {show} bind def
/slc {setlinecap} bind def
/slj {setlinejoin} bind def
/slw {setlinewidth} bind def
/srgb {setrgbcolor} bind def
/rot {rotate} bind def
/sc {scale} bind def
/sd {setdash} bind def
/ff {findfont} bind def
/sf {setfont} bind def
/scf {scalefont} bind def
/sw {stringwidth} bind def
/tr {translate} bind def
/tnt {dup dup currentrgbcolor
  4 -2 roll dup 1 exch sub 3 -1 roll mul add
  4 -2 roll dup 1 exch sub 3 -1 roll mul add
  4 -2 roll dup 1 exch sub 3 -1 roll mul add srgb}
  bind def
/shd {dup dup currentrgbcolor 4 -2 roll mul 4 -2 roll mul
  4 -2 roll mul srgb} bind def
/$F2psBegin {$F2psDict begin /$F2psEnteredState save def} def
/$F2psEnd {$F2psEnteredState restore end} def

/pageheader {
sa
n 0 213 m 0 0 l 141 0 l 141 213 l cp clip
-367.7 451.7 tr
1 -1 sc
$F2psBegin
10 setmiterlimit
0 slj 0 slc
 0.06299 0.06299 sc
} bind def
/pagefooter {
$F2psEnd
restore
} bind def
%%EndProlog
pageheader
%
% Fig objects follow
%
% 
% here starts figure with depth 50
% Arc
45.000 slw
0 slc
n 6672.2 5663.5 713.3 -21.6820 135.3250 arcn
gs col0 s gr
% Polyline
0 slj
7.500 slw
gs  clippath
7927 5663 m 7927 5677 l 7783 5700 l 7903 5670 l 7783 5640 l cp
eoclip
n 6660 5670 m
 7920 5670 l gs col0 s gr gr
% arrowhead
n 7783 5640 m 7903 5670 l 7783 5700 l  col0 s
% Polyline
gs  clippath
6653 4448 m 6667 4448 l 6690 4592 l 6660 4472 l 6630 4592 l cp
eoclip
n 6660 5670 m
 6660 4455 l gs col0 s gr gr
% arrowhead
n 6630 4592 m 6660 4472 l 6690 4592 l  col0 s
% Polyline
gs  clippath
6667 6037 m 6653 6037 l 6630 5893 l 6660 6013 l 6690 5893 l cp
eoclip
n 6660 5670 m
 6660 6030 l gs col0 s gr gr
% arrowhead
n 6690 5893 m 6660 6013 l 6630 5893 l  col0 s
% Polyline
n 7470 4590 m
 7470 6390 l gs col0 s gr % Polyline
n 5850 4590 m
 5850 6390 l gs col0 s gr % Polyline
 [60] 0 sd
n 6656 5670 m
 6124 6234 l gs col0 s gr  [] 0 sd
% Polyline
30.000 slw
gs  clippath
6216 5120 m 6200 5088 l 6426 4928 l 6480 5035 l cp
eoclip
n 6404 5006 m
 6224 5096 l gs col0 s gr gr
% arrowhead
7.500 slw
n 6426 4928 m 6238 5089 l 6480 5035 l 6426 4928 l  cp gs 0.00 setgray ef gr  col0 s
% Polyline
15.000 slw
gs  clippath
7347 6826 m 7347 6847 l 7079 6896 l 7319 6836 l 7079 6776 l cp
5976 6847 m 5976 6826 l 6243 6776 l 6003 6836 l 6243 6896 l cp
eoclip
n 5986 6836 m
 7336 6836 l gs col0 s gr gr
% arrowhead
7.500 slw
n 6243 6896 m 6003 6836 l 6243 6776 l  col0 s
% arrowhead
n 7079 6776 m 7319 6836 l 7079 6896 l  col0 s
% Polyline
15.000 slw
gs  clippath
5918 4658 m 5904 4642 l 6003 4531 l 5932 4632 l 6042 4576 l cp
eoclip
n 5919 4643 m
 6612 4043 l gs col0 s gr gr
% arrowhead
7.500 slw
n 6042 4576 m 5932 4632 l 6003 4531 l  col0 s
% Polyline
 [60] 0 sd
n 6660 5670 m
 7380 5355 l gs col0 s gr  [] 0 sd
% Polyline
2 slj
n 5850 4545 m 5850 4546 l 5851 4554 l 5853 4566 l 5855 4577 l 5859 4588 l
 5865 4598 l 5870 4604 l 5875 4611 l 5882 4619 l 5889 4627 l
 5897 4635 l 5906 4643 l 5914 4651 l 5923 4659 l 5932 4666 l
 5940 4673 l 5948 4679 l 5957 4684 l 5966 4690 l 5976 4696 l
 5986 4701 l 5996 4707 l 6007 4712 l 6017 4716 l 6027 4721 l
 6038 4725 l 6046 4728 l 6056 4732 l 6066 4736 l 6077 4740 l
 6088 4743 l 6101 4748 l 6113 4752 l 6127 4755 l 6140 4759 l
 6153 4763 l 6166 4767 l 6180 4770 l 6194 4773 l 6209 4777 l
 6225 4781 l 6242 4784 l 6259 4788 l 6276 4791 l 6294 4795 l
 6311 4798 l 6327 4801 l 6341 4803 l 6355 4806 l 6368 4808 l
 6381 4809 l 6395 4811 l 6408 4812 l 6421 4813 l 6434 4814 l
 6447 4815 l 6459 4816 l 6471 4816 l 6484 4817 l 6496 4817 l
 6507 4818 l 6518 4819 l 6531 4819 l 6545 4820 l 6560 4821 l
 6576 4822 l 6592 4822 l 6608 4823 l 6624 4824 l 6640 4824 l
 6655 4824 l 6671 4824 l 6684 4824 l 6698 4824 l 6713 4824 l
 6728 4823 l 6744 4823 l 6760 4822 l 6777 4821 l 6794 4819 l
 6811 4818 l 6828 4817 l 6845 4815 l 6861 4813 l 6877 4812 l
 6893 4810 l 6910 4808 l 6926 4806 l 6944 4803 l 6962 4801 l
 6980 4798 l 6999 4795 l 7018 4792 l 7037 4789 l 7055 4785 l
 7072 4782 l 7089 4779 l 7104 4776 l 7119 4773 l 7133 4770 l
 7148 4767 l 7162 4763 l 7177 4759 l 7191 4755 l 7205 4752 l
 7218 4747 l 7231 4743 l 7243 4740 l 7254 4736 l 7264 4732 l
 7274 4728 l 7283 4725 l 7293 4721 l 7303 4716 l 7313 4712 l
 7324 4707 l 7334 4701 l 7344 4696 l 7354 4690 l 7363 4684 l
 7372 4679 l 7380 4673 l 7388 4666 l 7397 4659 l 7406 4651 l
 7414 4643 l 7423 4635 l 7431 4627 l 7438 4619 l 7445 4611 l
 7450 4604 l 7455 4598 l 7461 4588 l 7465 4577 l 7467 4566 l
 7469 4554 l 7470 4546 l
 7470 4545 l gs col0 s gr % Polyline
n 5850 6384 m 5850 6385 l 5851 6393 l 5853 6405 l 5855 6416 l 5859 6427 l
 5865 6437 l 5870 6443 l 5875 6450 l 5882 6458 l 5889 6466 l
 5897 6474 l 5906 6482 l 5914 6490 l 5923 6498 l 5932 6505 l
 5940 6512 l 5948 6518 l 5957 6523 l 5966 6529 l 5976 6535 l
 5986 6540 l 5996 6546 l 6007 6551 l 6017 6555 l 6027 6560 l
 6038 6564 l 6046 6567 l 6056 6571 l 6066 6575 l 6077 6579 l
 6088 6582 l 6101 6587 l 6113 6591 l 6127 6594 l 6140 6598 l
 6153 6602 l 6166 6606 l 6180 6609 l 6194 6612 l 6209 6616 l
 6225 6620 l 6242 6623 l 6259 6627 l 6276 6630 l 6294 6634 l
 6311 6637 l 6327 6640 l 6341 6642 l 6355 6645 l 6368 6647 l
 6381 6648 l 6395 6650 l 6408 6651 l 6421 6652 l 6434 6653 l
 6447 6654 l 6459 6655 l 6471 6655 l 6484 6656 l 6496 6656 l
 6507 6657 l 6518 6658 l 6531 6658 l 6545 6659 l 6560 6660 l
 6576 6661 l 6592 6661 l 6608 6662 l 6624 6663 l 6640 6663 l
 6655 6663 l 6671 6663 l 6684 6663 l 6698 6663 l 6713 6663 l
 6728 6662 l 6744 6662 l 6760 6661 l 6777 6660 l 6794 6658 l
 6811 6657 l 6828 6656 l 6845 6654 l 6861 6652 l 6877 6651 l
 6893 6649 l 6910 6647 l 6926 6645 l 6944 6642 l 6962 6640 l
 6980 6637 l 6999 6634 l 7018 6631 l 7037 6628 l 7055 6624 l
 7072 6621 l 7089 6618 l 7104 6615 l 7119 6612 l 7133 6609 l
 7148 6606 l 7162 6602 l 7177 6598 l 7191 6594 l 7205 6591 l
 7218 6586 l 7231 6582 l 7243 6579 l 7254 6575 l 7264 6571 l
 7274 6567 l 7283 6564 l 7293 6560 l 7303 6555 l 7313 6551 l
 7324 6546 l 7334 6540 l 7344 6535 l 7354 6529 l 7363 6523 l
 7372 6518 l 7380 6512 l 7388 6505 l 7397 6498 l 7406 6490 l
 7414 6482 l 7423 6474 l 7431 6466 l 7438 6458 l 7445 6450 l
 7450 6443 l 7455 6437 l 7461 6427 l 7465 6416 l 7467 6405 l
 7469 6393 l 7470 6385 l
 7470 6384 l gs col0 s gr /Times-Bold ff 317.50 scf sf
7965 5670 m
gs 1 -1 sc (y) col0 sh gr
/Times-Bold ff 317.50 scf sf
6660 4410 m
gs 1 -1 sc (z) col0 sh gr
/Times-Bold ff 317.50 scf sf
6660 6210 m
gs 1 -1 sc (x) col0 sh gr
/Times-Roman ff 190.50 scf sf
5969 6413 m
gs 1 -1 sc (phi1) col0 sh gr
/Times-Bold ff 317.50 scf sf
5978 5110 m
gs 1 -1 sc (I) col0 sh gr
/Times-Bold ff 317.50 scf sf
6705 3940 m
gs 1 -1 sc (R2) col0 sh gr
/Times-Roman ff 190.50 scf sf
7245 5580 m
gs 1 -1 sc (phi0) col0 sh gr
/Times-Bold ff 317.50 scf sf
6615 7155 m
gs 1 -1 sc (2 R) col0 sh gr
% here ends figure;
pagefooter
showpage
%%Trailer
%EOF
