%!PS-Adobe-3.0
%%Title: StraightWire.fig
%%Creator: fig2dev Version 3.2.7a
%%CreationDate: 2024-03-07 19:11:33
%%Pages: 1
%%BoundingBox: 0 0 842 595
%%DocumentPaperSizes: a4
%%Magnification: 1.0000
%%EndComments
%%BeginSetup
[{
%%BeginFeature: *PageSize A4
<</PageSize [842 595]>> setpagedevice
%%EndFeature
} stopped cleartomark
%%EndSetup
%%BeginProlog
/$F2psDict 200 dict def
$F2psDict begin
$F2psDict /mtrx matrix put
/col-1 {0 setgray} bind def
/col0 {0.000 0.000 0.000 srgb} bind def
/col7 {1.000 1.000 1.000 srgb} bind def

end

/cp {closepath} bind def
/ef {eofill} bind def
/gr {grestore} bind def
/gs {gsave} bind def
/sa {save} bind def
/rs {restore} bind def
/l {lineto} bind def
/rl {rlineto} bind def
/m {moveto} bind def
/rm {rmoveto} bind def
/n {newpath} bind def
/s {stroke} bind def
/sh {show} bind def
/slc {setlinecap} bind def
/slj {setlinejoin} bind def
/slw {setlinewidth} bind def
/srgb {setrgbcolor} bind def
/rot {rotate} bind def
/sc {scale} bind def
/sd {setdash} bind def
/ff {findfont} bind def
/sf {setfont} bind def
/scf {scalefont} bind def
/sw {stringwidth} bind def
/tr {translate} bind def
/tnt {dup dup currentrgbcolor
  4 -2 roll dup 1 exch sub 3 -1 roll mul add
  4 -2 roll dup 1 exch sub 3 -1 roll mul add
  4 -2 roll dup 1 exch sub 3 -1 roll mul add srgb}
  bind def
/shd {dup dup currentrgbcolor 4 -2 roll mul 4 -2 roll mul
  4 -2 roll mul srgb} bind def
/$F2psBegin {$F2psDict begin /$F2psEnteredState save def} def
/$F2psEnd {$F2psEnteredState restore end} def

/pageheader {
sa
n 0 595 m 0 0 l 842 0 l 842 595 l cp clip
-41.5 557.7 tr
$F2psBegin
10 setmiterlimit
0 slj 0 slc
 0.06299 0.06299 sc
} bind def
/pagefooter {
$F2psEnd
restore
} bind def
%%EndProlog
%%Page: 1 1
%%BeginPageSetup
pageheader
1 -1 scale
%%EndPageSetup
%
% Fig objects follow
%
% 
% here starts figure with depth 50
% Polyline
0 slj
0 slc
7.500 slw
gs  clippath
6653 4448 m 6667 4448 l 6690 4592 l 6660 4472 l 6630 4592 l cp
eoclip
n 6660 5670 m
 6660 4455 l gs col0 s gr gr
% arrowhead
n 6630 4592 m 6660 4472 l 6690 4592 l  col0 s
% Polyline
gs  clippath
6667 6037 m 6653 6037 l 6630 5893 l 6660 6013 l 6690 5893 l cp
eoclip
n 6660 5670 m
 6660 6030 l gs col0 s gr gr
% arrowhead
n 6690 5893 m 6660 6013 l 6630 5893 l  col0 s
% Polyline
30.000 slw
n 6660 5670 m 6660 3825 l
 6660 2070 l gs col0 s gr % Polyline
15.000 slw
gs  clippath
6401 5681 m 6380 5681 l 6330 5413 l 6390 5653 l 6450 5413 l cp
6380 2060 m 6401 2060 l 6450 2327 l 6390 2087 l 6330 2327 l cp
eoclip
n 6390 2070 m
 6390 5670 l gs col0 s gr gr
% arrowhead
7.500 slw
n 6330 2327 m 6390 2087 l 6450 2327 l  col0 s
% arrowhead
n 6450 5413 m 6390 5653 l 6330 5413 l  col0 s
% Polyline
30.000 slw
gs  clippath
6642 3717 m 6678 3717 l 6690 3920 l 6630 3920 l cp
eoclip
n 6660 3915 m
 6660 3735 l gs col0 s gr gr
% arrowhead
n 6690 3920 m 6660 3800 l 6630 3920 l 6690 3920 l  cp gs 0.00 setgray ef gr  col0 s
% Polyline
7.500 slw
gs  clippath
7927 5663 m 7927 5677 l 7783 5700 l 7903 5670 l 7783 5640 l cp
eoclip
n 6660 5670 m
 7920 5670 l gs col0 s gr gr
% arrowhead
n 7783 5640 m 7903 5670 l 7783 5700 l  col0 s
/Times-Bold ff 317.50 scf sf
6660 6210 m
gs 1 -1 sc (x) col0 sh gr
/Times-Bold ff 317.50 scf sf
6840 4590 m
gs 1 -1 sc (z) col0 sh gr
/Times-Bold ff 317.50 scf sf
6165 3825 m
gs 1 -1 sc (L) col0 sh gr
/Times-Bold ff 317.50 scf sf
6795 3870 m
gs 1 -1 sc (I) col0 sh gr
/Times-Bold ff 317.50 scf sf
7965 5670 m
gs 1 -1 sc (y     ) col0 sh gr
% here ends figure;
pagefooter
showpage
%%Trailer
%EOF
