<?xml version='1.0' encoding='UTF-8' standalone='no'?>
<svg xmlns="http://www.w3.org/2000/svg" xmlns:xlink="http://www.w3.org/1999/xlink" width="494pt" viewBox="0 0 494 368" height="368pt">
 <title>gl2ps_renderer figure</title>
 <desc>
Creator: GL2PS 1.4.2, (C) 1999-2020 C. Geuzaine
For: Octave
CreationDate: Wed Mar 13 13:42:17 2024
</desc>
 <defs/>
 <polygon fill="#ffffff" points="0,0 494,0 494,368 0,368"/>
 <g>
  <polygon shape-rendering="crispEdges" fill="#ffffff" points="0,368 494,368 494,0 0,0"/>
  <clipPath id="cp00494368">
   <polygon points="0,368 494,368 494,0 0,0"/>
  </clipPath>
  <g clip-path="url(#cp00494368)">
   <polygon shape-rendering="crispEdges" fill="#ffffff" points="447.191,269.877 447.191,251.261 339.75,54.5847 280.923,27.6627 196.241,50.4807 64.2374,192.758 64.2374,252.172 230.506,328.264"/>
   <text font-family="FreeSans" transform="translate(44.0574,247.056) rotate(-0,9,0)" xml:space="preserve" font-size="10" font-style="normal" font-weight="normal">
    <tspan fill="rgb(38,38,38)" x="0 3 " y="-0">-1</tspan>
   </text>
   <polyline stroke-linecap="butt" fill="none" stroke="#262626" points="64.2374,252.172 57.6109,249.14" stroke-width="0.5" stroke-linejoin="miter"/>
   <polyline stroke-linecap="butt" fill="none" stroke="#0071bc" points="146.037,150.15 164.268,142.347" stroke-width="0.5" stroke-linejoin="round"/>
   <polyline stroke-linecap="butt" fill="none" stroke="#0071bc" points="278.32,130.669 237.51,130.436 198.326,134.448" stroke-width="0.5" stroke-linejoin="round"/>
   <polyline stroke-linecap="butt" fill="none" stroke="#0071bc" points="350.417,143.412 317.11,135.127" stroke-width="0.5" stroke-linejoin="round"/>
   <polyline stroke-linecap="butt" fill="none" stroke="#0071bc" points="198.326,134.448 164.268,142.347" stroke-width="0.5" stroke-linejoin="round"/>
   <polyline stroke-linecap="butt" fill="none" stroke="#0071bc" points="317.11,135.127 278.32,130.669" stroke-width="0.5" stroke-linejoin="round"/>
   <polyline stroke-linecap="square" fill="none" stroke="#262626" stroke-dasharray="16,0" points="64.2374,225.997 64.2374,252.172" stroke-width="0.5" stroke-linejoin="miter"/>
   <polyline stroke-linecap="butt" fill="none" stroke="#262626" points="64.2374,252.172 57.2182,254.064" stroke-width="0.5" stroke-linejoin="miter"/>
   <text font-family="FreeSans" transform="translate(31.3948,263.363) rotate(-0,21,-8)" xml:space="preserve" font-size="10" font-style="normal" font-weight="normal">
    <tspan fill="rgb(38,38,38)" x="0 6 9 15 " y="-0">0.01</tspan>
   </text>
   <polyline stroke-linecap="square" fill="none" stroke="#262626" stroke-dasharray="16,0" points="83.3031,260.898 64.2374,252.172" stroke-width="0.5" stroke-linejoin="miter"/>
   <text font-family="FreeSans" transform="translate(35.0574,205.525) rotate(-0,18,0)" xml:space="preserve" font-size="10" font-style="normal" font-weight="normal">
    <tspan fill="rgb(38,38,38)" x="0 3 9 12 " y="-0">-0.5</tspan>
   </text>
   <polygon shape-rendering="crispEdges" fill="#ffffff" points="196.241,50.4807 64.2374,192.758 64.2374,86.0496"/>
   <polygon shape-rendering="crispEdges" fill="#ffffff" points="339.75,54.5847 447.191,251.261 447.191,103.754"/>
   <polyline stroke-linecap="butt" fill="none" stroke="#262626" points="147.372,290.218 140.352,292.109" stroke-width="0.5" stroke-linejoin="miter"/>
   <text font-family="FreeSans" transform="translate(129.529,301.409) rotate(-0,6,-8)" xml:space="preserve" font-size="10" font-style="normal" font-weight="normal">
    <tspan fill="rgb(38,38,38)" x="0 " y="-0">0</tspan>
   </text>
   <polyline stroke-linecap="butt" fill="none" stroke="#262626" points="188.939,309.241 181.92,311.132" stroke-width="0.5" stroke-linejoin="miter"/>
   <polyline stroke-linecap="square" fill="none" stroke="#262626" stroke-dasharray="16,0" points="105.804,271.195 195.911,312.431" stroke-width="0.5" stroke-linejoin="miter"/>
   <polyline stroke-linecap="square" fill="none" stroke="#262626" stroke-dasharray="16,0" points="289.261,312.432 447.191,269.877" stroke-width="0.5" stroke-linejoin="miter"/>
   <polyline stroke-linecap="butt" fill="none" stroke="#262626" points="393.02,284.473 399.646,287.506" stroke-width="0.5" stroke-linejoin="miter"/>
   <text font-family="FreeSans" transform="translate(404.2,297.59) rotate(-0,-0,-8)" xml:space="preserve" font-size="10" font-style="normal" font-weight="normal">
    <tspan fill="rgb(38,38,38)" x="0 6 9 15 21 " y="-0">0.005</tspan>
   </text>
   <polyline stroke-linecap="butt" fill="none" stroke="#262626" points="338.848,299.07 345.475,302.103" stroke-width="0.5" stroke-linejoin="miter"/>
   <text font-family="FreeSans" transform="translate(350.028,312.187) rotate(-0,-0,-8)" xml:space="preserve" font-size="10" font-style="normal" font-weight="normal">
    <tspan fill="rgb(38,38,38)" x="0 " y="-0">0</tspan>
   </text>
   <text font-family="FreeSans" transform="translate(458.371,282.993) rotate(-0,-0,-8)" xml:space="preserve" font-size="10" font-style="normal" font-weight="normal">
    <tspan fill="rgb(38,38,38)" x="0 6 9 15 " y="-0">0.01</tspan>
   </text>
   <polyline stroke-linecap="butt" fill="none" stroke="#262626" points="447.191,269.877 453.817,272.909" stroke-width="0.5" stroke-linejoin="miter"/>
   <polyline stroke-linecap="butt" fill="none" stroke="#0071bc" points="379.834,197.356 372.636,201.683" stroke-width="0.5" stroke-linejoin="round"/>
   <text font-family="FreeSans" transform="translate(66.9619,282.386) rotate(-0,27,-8)" xml:space="preserve" font-size="10" font-style="normal" font-weight="normal">
    <tspan fill="rgb(38,38,38)" x="0 6 9 15 21 " y="-0">0.005</tspan>
   </text>
   <polyline stroke-linecap="butt" fill="none" stroke="#262626" points="105.804,271.195 98.7853,273.086" stroke-width="0.5" stroke-linejoin="miter"/>
   <polyline stroke-linecap="square" fill="none" stroke="#262626" stroke-dasharray="16,0" points="105.804,271.195 83.3031,260.898" stroke-width="0.5" stroke-linejoin="miter"/>
   <polyline stroke-linecap="butt" fill="none" stroke="#262626" points="64.2374,210.642 57.6109,207.609" stroke-width="0.5" stroke-linejoin="miter"/>
   <text font-family="FreeSans" transform="translate(47.0574,163.995) rotate(-0,6,0)" xml:space="preserve" font-size="10" font-style="normal" font-weight="normal">
    <tspan fill="rgb(38,38,38)" x="0 " y="-0">0</tspan>
   </text>
   <polyline stroke-linecap="butt" fill="none" stroke="#262626" points="64.2374,169.111 57.6109,166.078" stroke-width="0.5" stroke-linejoin="miter"/>
   <text font-family="FreeSans" transform="translate(38.0574,122.464) rotate(-0,15,0)" xml:space="preserve" font-size="10" font-style="normal" font-weight="normal">
    <tspan fill="rgb(38,38,38)" x="0 6 9 " y="-0">0.5</tspan>
   </text>
   <polyline stroke-linecap="butt" fill="none" stroke="#262626" points="64.2374,127.58 57.6109,124.548" stroke-width="0.5" stroke-linejoin="miter"/>
   <polyline stroke-linecap="square" fill="none" stroke="#262626" stroke-dasharray="16,0" points="64.2374,225.997 64.2374,86.0496" stroke-width="0.5" stroke-linejoin="miter"/>
   <polyline stroke-linecap="butt" fill="none" stroke="#0071bc" points="122.972,166.699 119.421,180.978" stroke-width="0.5" stroke-linejoin="round"/>
   <polyline stroke-linecap="butt" fill="none" stroke="#0071bc" points="138.785,201.683 128.046,194.987" stroke-width="0.5" stroke-linejoin="round"/>
   <polyline stroke-linecap="butt" fill="none" stroke="#0071bc" points="119.421,180.978 128.046,194.987" stroke-width="0.5" stroke-linejoin="round"/>
   <polyline stroke-linecap="butt" fill="none" stroke="#0071bc" points="146.037,150.15 138.379,153.427" stroke-width="0.5" stroke-linejoin="round"/>
   <polyline stroke-linecap="butt" fill="none" stroke="#0071bc" points="138.379,153.427 122.972,166.699" stroke-width="0.5" stroke-linejoin="round"/>
   <text font-family="FreeSans" transform="translate(47.0574,80.9332) rotate(-0,6,0)" xml:space="preserve" font-size="10" font-style="normal" font-weight="normal">
    <tspan fill="rgb(38,38,38)" x="0 " y="-0">1</tspan>
   </text>
   <polyline stroke-linecap="butt" fill="none" stroke="#262626" points="64.2374,86.0496 57.6109,83.0171" stroke-width="0.5" stroke-linejoin="miter"/>
   <polyline stroke-linecap="butt" fill="none" stroke="#0071bc" points="391.854,181.733 388.946,167.436" stroke-width="0.5" stroke-linejoin="round"/>
   <polyline stroke-linecap="butt" fill="none" stroke="#0071bc" points="379.834,197.356 382.602,195.692 391.854,181.733" stroke-width="0.5" stroke-linejoin="round"/>
   <text font-family="FreeSans" transform="translate(147.096,320.432) rotate(-0,30,-8)" xml:space="preserve" font-size="10" font-style="normal" font-weight="normal">
    <tspan fill="rgb(38,38,38)" x="0 3 9 12 18 24 " y="-0">-0.005</tspan>
   </text>
   <polyline stroke-linecap="butt" fill="none" stroke="#262626" points="230.506,328.264 223.487,330.155" stroke-width="0.5" stroke-linejoin="miter"/>
   <text font-family="FreeSans" transform="translate(194.663,339.455) rotate(-0,24,-8)" xml:space="preserve" font-size="10" font-style="normal" font-weight="normal">
    <tspan fill="rgb(38,38,38)" x="0 3 9 12 18 " y="-0">-0.01</tspan>
   </text>
   <polyline stroke-linecap="square" fill="none" stroke="#262626" stroke-dasharray="16,0" points="195.911,312.431 230.506,328.264" stroke-width="0.5" stroke-linejoin="miter"/>
   <polyline stroke-linecap="butt" fill="none" stroke="#262626" points="230.506,328.264 237.132,331.296" stroke-width="0.5" stroke-linejoin="miter"/>
   <polyline stroke-linecap="butt" fill="none" stroke="#0071bc" points="148.074,207.475 177.718,217.328" stroke-width="0.5" stroke-linejoin="round"/>
   <polyline stroke-linecap="butt" fill="none" stroke="#0071bc" points="302.594,222.632 331.932,217.755" stroke-width="0.5" stroke-linejoin="round"/>
   <polyline stroke-linecap="butt" fill="none" stroke="#0071bc" points="208.368,222.632 177.718,217.328" stroke-width="0.5" stroke-linejoin="round"/>
   <polyline stroke-linecap="butt" fill="none" stroke="#0071bc" points="138.785,201.683 148.074,207.475" stroke-width="0.5" stroke-linejoin="round"/>
   <polyline stroke-linecap="butt" fill="none" stroke="#0071bc" points="331.932,217.755 362.014,208.068" stroke-width="0.5" stroke-linejoin="round"/>
   <polyline stroke-linecap="butt" fill="none" stroke="#0071bc" points="372.636,201.683 362.014,208.068" stroke-width="0.5" stroke-linejoin="round"/>
   <polyline stroke-linecap="square" fill="none" stroke="#262626" stroke-dasharray="16,0" points="289.261,312.432 230.506,328.264" stroke-width="0.5" stroke-linejoin="miter"/>
   <polyline stroke-linecap="butt" fill="none" stroke="#262626" points="284.677,313.667 291.304,316.699" stroke-width="0.5" stroke-linejoin="miter"/>
   <text font-family="FreeSans" transform="translate(295.857,326.783) rotate(-0,-0,-8)" xml:space="preserve" font-size="10" font-style="normal" font-weight="normal">
    <tspan fill="rgb(38,38,38)" x="0 3 9 12 18 24 " y="-0">-0.005</tspan>
   </text>
   <text font-family="FreeSans" transform="translate(241.686,341.38) rotate(-0,-0,-8)" xml:space="preserve" font-size="10" font-style="normal" font-weight="normal">
    <tspan fill="rgb(38,38,38)" x="0 3 9 12 18 " y="-0">-0.01</tspan>
   </text>
   <polyline stroke-linecap="butt" fill="none" stroke="#0071bc" points="214.329,223.664 254.637,225.917" stroke-width="0.5" stroke-linejoin="round"/>
   <polyline stroke-linecap="butt" fill="none" stroke="#0071bc" points="302.594,222.632 295.041,223.887" stroke-width="0.5" stroke-linejoin="round"/>
   <polyline stroke-linecap="butt" fill="none" stroke="#0071bc" points="254.637,225.917 295.041,223.887" stroke-width="0.5" stroke-linejoin="round"/>
   <polyline stroke-linecap="butt" fill="none" stroke="#0071bc" points="208.368,222.632 214.329,223.664" stroke-width="0.5" stroke-linejoin="round"/>
  </g>
 </g>
</svg>
